# Blender v2.79 (sub 0) OBJ File: 'complicated_wire.blend'
# www.blender.org
mtllib complicated_wire.mtl
o X1_x1
v -0.474750 -0.027869 0.434346
v -0.450001 -0.051544 0.465201
v -0.442930 -0.047240 0.459591
v -0.450001 -0.042935 0.453981
v -0.457072 -0.047240 0.459591
v -0.449999 -0.047251 0.459605
v -0.481821 -0.062306 0.479225
v -0.474750 -0.066611 0.484835
v -0.481821 -0.032174 0.439956
v -0.418181 -0.032174 0.439956
v -0.425252 -0.027869 0.434346
v -0.425145 -0.066676 0.484920
v -0.418289 -0.062241 0.479140
v -0.449999 -0.039318 0.465693
v -0.450001 -0.035002 0.460068
v -0.474750 -0.019936 0.440434
v -0.481821 -0.024240 0.446044
v -0.457072 -0.039306 0.465678
v -0.418289 -0.054307 0.485228
v -0.442930 -0.039306 0.465678
v -0.449999 -0.039318 0.465693
v -0.450001 -0.043611 0.471288
v -0.425145 -0.058742 0.491008
v -0.450001 -0.043611 0.471288
v -0.449999 -0.039318 0.465693
v -0.457072 -0.039306 0.465678
v -0.481821 -0.054372 0.485313
v -0.474750 -0.058677 0.490923
v -0.442930 -0.039306 0.465678
v -0.418181 -0.024240 0.446044
v -0.425252 -0.019936 0.440434
v -0.450001 -0.035002 0.460068
v -0.449999 -0.039318 0.465693
vn -0.0000 0.7934 0.6088
vn 1.0000 0.0002 -0.0002
vn 0.7071 0.4305 -0.5610
vn -0.7071 0.4305 -0.5610
vn -0.7071 -0.4305 0.5610
vn -0.0026 -0.6088 0.7934
vn -0.0026 0.6088 -0.7934
vn -1.0000 0.0002 -0.0002
vn 0.7282 -0.4172 0.5437
vn 1.0000 -0.0002 0.0002
vn 0.0026 0.6088 -0.7934
vn 0.7071 -0.4305 0.5610
vn -1.0000 -0.0002 0.0002
vn 0.0026 -0.6088 0.7934
vn -0.0026 -0.6088 0.7933
vn -0.0026 0.6088 -0.7933
vn 0.0026 0.6088 -0.7933
vn 0.0026 -0.6088 0.7933
usemtl X1
s off
f 16//1 17//1 18//1
f 4//2 14//2 6//2
f 16//3 4//3 1//3
f 9//4 16//4 1//4
f 18//5 9//5 5//5
f 14//6 5//6 6//6
f 20//1 22//1 19//1
f 20//3 13//3 3//3
f 21//7 3//7 6//7
f 22//8 6//8 2//8
f 12//5 22//5 2//5
f 19//9 12//9 13//9
f 26//1 27//1 24//1
f 6//10 24//10 2//10
f 5//11 25//11 6//11
f 7//4 26//4 5//4
f 28//5 7//5 8//5
f 24//12 8//12 2//12
f 30//1 32//1 29//1
f 30//12 3//12 10//12
f 31//3 10//3 11//3
f 4//4 31//4 11//4
f 33//13 4//13 6//13
f 3//14 33//14 6//14
f 18//1 14//1 15//1
f 15//1 16//1 18//1
f 4//2 15//2 14//2
f 16//3 15//3 4//3
f 9//4 17//4 16//4
f 18//5 17//5 9//5
f 14//15 18//15 5//15
f 23//1 19//1 22//1
f 20//1 21//1 22//1
f 20//3 19//3 13//3
f 21//16 20//16 3//16
f 22//8 21//8 6//8
f 12//5 23//5 22//5
f 19//9 23//9 12//9
f 28//1 24//1 27//1
f 25//1 26//1 24//1
f 6//10 25//10 24//10
f 5//17 26//17 25//17
f 7//4 27//4 26//4
f 28//5 27//5 7//5
f 24//12 28//12 8//12
f 33//1 29//1 32//1
f 30//1 31//1 32//1
f 30//12 29//12 3//12
f 31//3 30//3 10//3
f 4//4 32//4 31//4
f 33//13 32//13 4//13
f 3//18 29//18 33//18
o LED1_Cube.003
v -0.480000 -0.031000 -0.385000
v -0.480000 -0.021000 -0.385000
v -0.480000 -0.031000 -0.415000
v -0.480000 -0.021000 -0.415000
v -0.420000 -0.031000 -0.385000
v -0.420000 -0.021000 -0.385000
v -0.420000 -0.031000 -0.415000
v -0.420000 -0.021000 -0.415000
vn -1.0000 0.0000 0.0000
vn 0.0000 0.0000 -1.0000
vn 1.0000 0.0000 0.0000
vn 0.0000 0.0000 1.0000
vn 0.0000 -1.0000 0.0000
vn 0.0000 1.0000 0.0000
usemtl LED1
s off
f 35//19 36//19 34//19
f 37//20 40//20 36//20
f 41//21 38//21 40//21
f 39//22 34//22 38//22
f 40//23 34//23 36//23
f 37//24 39//24 41//24
f 35//19 37//19 36//19
f 37//20 41//20 40//20
f 41//21 39//21 38//21
f 39//22 35//22 34//22
f 40//23 38//23 34//23
f 37//24 35//24 39//24
o Cube_Cube.001
v -0.500000 -0.186356 0.509087
v -0.500000 -0.080000 0.508044
v -0.500000 -0.186356 0.420000
v -0.500000 -0.006082 0.420000
v 0.350000 -0.186356 0.509087
v 0.350000 -0.080000 0.508044
v 0.350000 -0.186356 0.420000
v 0.350000 -0.006082 0.420000
v -0.500000 -0.006082 0.370000
v -0.500000 -0.186356 0.370000
v 0.350000 -0.186356 0.370000
v 0.350000 -0.006082 0.370000
vn -1.0000 0.0000 0.0000
vn 0.0000 1.0000 0.0000
vn 1.0000 -0.0000 0.0000
vn 0.0000 0.0098 1.0000
vn 0.0000 -1.0000 -0.0000
vn 0.0000 0.7659 0.6430
vn 0.0000 0.0000 -1.0000
usemtl Base
s off
f 43//25 44//25 42//25
f 49//26 50//26 45//26
f 48//27 47//27 46//27
f 47//28 42//28 46//28
f 48//29 42//29 44//29
f 45//30 47//30 49//30
f 50//31 52//31 51//31
f 45//25 51//25 44//25
f 48//27 53//27 49//27
f 44//29 52//29 48//29
f 43//25 45//25 44//25
f 49//26 53//26 50//26
f 48//27 49//27 47//27
f 47//28 43//28 42//28
f 48//29 46//29 42//29
f 45//30 43//30 47//30
f 50//31 53//31 52//31
f 45//25 50//25 51//25
f 48//27 52//27 53//27
f 44//29 51//29 52//29
o Wire1_wire1
v -0.464794 -0.050131 0.375928
v -0.460341 -0.039564 0.376132
v -0.449831 -0.035109 0.375673
v -0.439419 -0.039380 0.374820
v -0.435206 -0.049873 0.374072
v -0.439662 -0.060439 0.373868
v -0.450172 -0.064891 0.374327
v -0.460580 -0.060620 0.375180
v -0.480518 -0.022106 0.265822
v -0.472552 -0.013834 0.265821
v -0.461008 -0.013590 0.265705
v -0.452685 -0.021556 0.265543
v -0.452492 -0.033027 0.265430
v -0.460509 -0.041246 0.265431
v -0.472000 -0.041439 0.265546
v -0.480272 -0.033526 0.265708
v -0.443258 -0.015260 0.132463
v -0.432555 -0.019655 0.132372
v -0.428102 -0.030291 0.132429
v -0.432488 -0.040890 0.132601
v -0.443094 -0.045265 0.132786
v -0.453728 -0.040897 0.132877
v -0.458210 -0.030329 0.132820
v -0.453892 -0.019702 0.132649
v -0.431565 -0.041632 -0.011237
v -0.437605 -0.051495 -0.011335
v -0.448783 -0.054068 -0.011219
v -0.458522 -0.048080 -0.010958
v -0.461355 -0.037075 -0.010704
v -0.455652 -0.027260 -0.010606
v -0.444447 -0.024366 -0.010721
v -0.434387 -0.030335 -0.010983
v -0.423613 -0.054802 -0.152307
v -0.432921 -0.048197 -0.152339
v -0.434790 -0.036768 -0.152248
v -0.428364 -0.027194 -0.152086
v -0.417414 -0.024750 -0.151948
v -0.408062 -0.030901 -0.151916
v -0.405790 -0.042384 -0.152007
v -0.412249 -0.052388 -0.152169
v -0.435669 -0.074114 -0.277626
v -0.434650 -0.062714 -0.277476
v -0.425821 -0.055336 -0.277525
v -0.414340 -0.056008 -0.277743
v -0.406730 -0.064181 -0.278003
v -0.407343 -0.075341 -0.278153
v -0.416008 -0.083031 -0.278105
v -0.427942 -0.082655 -0.277887
v -0.464752 -0.050319 -0.373988
v -0.460250 -0.039854 -0.373455
v -0.449745 -0.035331 -0.373828
v -0.439390 -0.039403 -0.374887
v -0.435248 -0.049681 -0.376013
v -0.439750 -0.060146 -0.376545
v -0.450255 -0.064669 -0.376172
v -0.460610 -0.060597 -0.375113
vn -0.9876 -0.0367 0.1527
vn -0.9293 -0.3648 -0.0579
vn -0.6814 -0.7309 -0.0368
vn 0.8979 0.4367 0.0557
vn 0.0262 0.9850 0.1705
vn 0.7390 0.6737 -0.0006
vn 0.9282 -0.3701 -0.0387
vn 0.9825 -0.0364 -0.1826
vn -0.3950 -0.9100 -0.1256
vn 0.0130 -0.9810 -0.1934
vn -0.9277 0.3733 0.0064
vn -0.6926 0.7136 -0.1056
vn 0.9988 0.0078 0.0476
vn 0.3202 0.9431 0.0891
vn 0.7198 -0.6917 0.0579
vn -0.9965 -0.0171 -0.0815
vn 0.0204 0.9979 -0.0607
vn 0.7960 0.6032 0.0488
vn -0.1843 -0.9827 0.0196
vn 0.0124 -0.9991 0.0402
vn -0.8092 -0.5861 -0.0401
vn 0.1176 0.9929 -0.0197
vn 0.9824 -0.1631 0.0908
vn 0.5849 -0.7934 0.1686
vn -0.9668 0.2303 -0.1105
vn -0.9891 0.1270 -0.0743
vn -0.5311 0.8385 -0.1220
vn 0.9799 -0.1567 0.1231
vn -0.1990 -0.9739 0.1088
vn -0.3701 -0.9260 0.0746
vn -0.3098 0.9499 0.0396
vn 0.1983 0.9778 -0.0676
vn 0.4685 0.8775 -0.1022
vn 0.3528 -0.9354 -0.0240
vn -0.9153 -0.3631 0.1740
vn -0.7354 -0.6738 0.0712
vn 0.6587 0.7521 -0.0199
vn 0.9662 0.0368 -0.2551
vn 0.9473 0.2830 -0.1499
vn -0.0494 -0.9804 -0.1906
vn -0.9613 0.0145 0.2750
vn -0.0482 0.9714 0.2325
vn -0.6855 0.6879 0.2383
vn 0.3747 -0.9173 -0.1349
vn 0.6824 -0.6859 -0.2526
vn -0.4170 0.9066 0.0638
vn 0.7134 0.7007 0.0010
vn -0.6930 -0.7208 -0.0031
vn 0.5619 -0.8236 0.0767
vn -0.6211 0.7807 -0.0688
vn -0.8538 -0.5197 -0.0301
vn 0.8233 0.5668 0.0294
vn -0.8835 0.4334 0.1776
vn 0.8844 -0.4541 -0.1075
vn 0.6648 -0.6723 -0.3255
vn -0.6717 0.6601 0.3363
usemtl Wire1A
s 1
f 54//32 69//33 61//34
f 65//35 56//36 57//37
f 66//38 57//37 58//39
f 61//34 68//40 60//41
f 62//42 77//43 69//33
f 65//35 72//44 64//45
f 66//38 73//46 65//35
f 69//33 76//47 68//40
f 70//48 85//49 77//43
f 73//46 80//50 72//44
f 74//51 81//52 73//46
f 77//43 84//53 76//47
f 78//54 93//55 85//49
f 81//52 88//56 80//50
f 82//57 89//58 81//52
f 85//49 92//59 84//53
f 86//60 101//61 93//55
f 89//58 96//62 88//56
f 90//63 97//64 89//58
f 93//55 100//65 92//59
f 94//66 109//67 101//61
f 105//68 96//62 97//64
f 106//69 97//64 98//70
f 101//61 108//71 100//65
f 54//32 62//42 69//33
f 65//35 64//45 56//36
f 66//38 65//35 57//37
f 61//34 69//33 68//40
f 62//42 70//48 77//43
f 65//35 73//46 72//44
f 66//38 74//51 73//46
f 69//33 77//43 76//47
f 70//48 78//54 85//49
f 73//46 81//52 80//50
f 74//51 82//57 81//52
f 77//43 85//49 84//53
f 78//54 86//60 93//55
f 81//52 89//58 88//56
f 82//57 90//63 89//58
f 85//49 93//55 92//59
f 86//60 94//66 101//61
f 89//58 97//64 96//62
f 90//63 98//70 97//64
f 93//55 101//61 100//65
f 94//66 102//72 109//67
f 105//68 104//73 96//62
f 106//69 105//68 97//64
f 101//61 109//67 108//71
usemtl Wire1B
f 55//74 62//42 54//32
f 64//45 55//74 56//36
f 67//75 58//39 59//76
f 60//41 67//75 59//76
f 63//77 70//48 62//42
f 64//45 71//78 63//77
f 75//79 66//38 67//75
f 76//47 67//75 68//40
f 71//78 78//54 70//48
f 72//44 79//80 71//78
f 75//79 82//57 74//51
f 76//47 83//81 75//79
f 79//80 86//60 78//54
f 80//50 87//82 79//80
f 83//81 90//63 82//57
f 84//53 91//83 83//81
f 95//84 86//60 87//82
f 96//62 87//82 88//56
f 91//83 98//70 90//63
f 92//59 99//85 91//83
f 95//84 102//72 94//66
f 104//73 95//84 96//62
f 107//86 98//70 99//85
f 100//65 107//86 99//85
f 55//74 63//77 62//42
f 64//45 63//77 55//74
f 67//75 66//38 58//39
f 60//41 68//40 67//75
f 63//77 71//78 70//48
f 64//45 72//44 71//78
f 75//79 74//51 66//38
f 76//47 75//79 67//75
f 71//78 79//80 78//54
f 72//44 80//50 79//80
f 75//79 83//81 82//57
f 76//47 84//53 83//81
f 79//80 87//82 86//60
f 80//50 88//56 87//82
f 83//81 91//83 90//63
f 84//53 92//59 91//83
f 95//84 94//66 86//60
f 96//62 95//84 87//82
f 91//83 99//85 98//70
f 92//59 100//65 99//85
f 95//84 103//87 102//72
f 104//73 103//87 95//84
f 107//86 106//69 98//70
f 100//65 108//71 107//86
o Wire2_wire2
v -0.314859 -0.049887 0.374231
v -0.310602 -0.039392 0.374934
v -0.300137 -0.035110 0.375677
v -0.289591 -0.039551 0.376022
v -0.285141 -0.050112 0.375769
v -0.289398 -0.060608 0.375066
v -0.299865 -0.064890 0.374323
v -0.310410 -0.060448 0.373978
v -0.284119 -0.032974 0.265352
v -0.276305 -0.024595 0.265617
v -0.264942 -0.024167 0.265888
v -0.256618 -0.031966 0.266005
v -0.256229 -0.043490 0.265900
v -0.264076 -0.051999 0.265634
v -0.275538 -0.052386 0.265363
v -0.283828 -0.044468 0.265246
v -0.271140 -0.063974 0.132619
v -0.260330 -0.067893 0.132643
v -0.255469 -0.078098 0.132657
v -0.259400 -0.088742 0.132652
v -0.269948 -0.093597 0.132631
v -0.280968 -0.089696 0.132606
v -0.285830 -0.079302 0.132593
v -0.281695 -0.068642 0.132598
v -0.312433 -0.073897 -0.010848
v -0.318042 -0.083902 -0.010947
v -0.328922 -0.087016 -0.011059
v -0.338824 -0.081385 -0.011120
v -0.341922 -0.070188 -0.011093
v -0.336282 -0.059976 -0.010994
v -0.325224 -0.056911 -0.010881
v -0.315355 -0.062738 -0.010821
v -0.316575 -0.047992 -0.151962
v -0.325872 -0.041297 -0.152116
v -0.327770 -0.030089 -0.152277
v -0.321052 -0.020749 -0.152350
v -0.309666 -0.018873 -0.152294
v -0.300247 -0.025583 -0.152139
v -0.298460 -0.036917 -0.151978
v -0.305244 -0.046205 -0.151905
v -0.313388 -0.047100 -0.277698
v -0.312233 -0.035688 -0.277842
v -0.303323 -0.028432 -0.277970
v -0.291890 -0.029607 -0.278007
v -0.284642 -0.038509 -0.277932
v -0.285816 -0.049925 -0.277788
v -0.294709 -0.057154 -0.277660
v -0.306126 -0.055997 -0.277622
v -0.314999 -0.050029 -0.375069
v -0.310623 -0.039416 -0.375115
v -0.300026 -0.035002 -0.375093
v -0.289414 -0.039375 -0.375017
v -0.285001 -0.049971 -0.374931
v -0.289377 -0.060584 -0.374885
v -0.299974 -0.064998 -0.374907
v -0.310587 -0.060625 -0.374983
vn -0.7294 0.6741 -0.1165
vn -0.8987 0.3916 -0.1972
vn -0.9670 -0.0076 -0.2545
vn -0.0531 0.9933 0.1029
vn -0.3634 0.9200 -0.1465
vn 0.4435 -0.8855 0.1383
vn 0.9672 -0.0313 0.2522
vn 0.6672 -0.7411 0.0757
vn -0.3436 -0.9391 0.0094
vn -0.0481 -0.9883 -0.1450
vn -0.0058 0.9892 -0.1464
vn 0.3635 0.9302 -0.0507
vn 0.6922 0.6779 -0.2477
vn 0.0870 -0.9938 0.0686
vn 0.9441 -0.2989 0.1392
vn -0.9713 -0.0743 0.2261
vn 0.9724 -0.1559 -0.1735
vn 0.9814 -0.0001 -0.1918
vn 0.5592 -0.8031 -0.2054
vn -0.6195 -0.7588 0.2011
vn -0.9877 0.0819 0.1329
vn -0.6524 0.7306 0.2016
vn -0.2273 -0.9668 -0.1165
vn -0.1705 -0.9794 -0.1079
vn -0.8618 -0.4947 -0.1124
vn 0.2106 0.9687 0.1313
vn 0.0761 0.9842 0.1596
vn 0.8201 0.5491 0.1608
vn -0.9525 -0.3043 -0.0099
vn -0.9636 0.2641 -0.0410
vn -0.8745 0.4776 -0.0844
vn 0.9582 0.2832 0.0404
vn 0.9738 -0.1953 0.1162
vn 0.8801 -0.4660 0.0908
vn -0.7182 0.6955 -0.0213
vn -0.0161 0.9975 -0.0686
vn -0.2770 0.9575 -0.0796
vn 0.9997 -0.0150 -0.0200
vn 0.2989 -0.9491 0.0989
vn 0.6980 -0.7152 0.0350
vn -0.9992 -0.0178 0.0343
vn -0.0019 -0.9980 0.0631
vn -0.9149 -0.3779 -0.1420
vn -0.6901 -0.6724 -0.2675
vn 0.6613 0.7013 0.2662
vn 0.8968 0.4393 0.0529
vn 0.7303 -0.6795 -0.0699
vn -0.7197 0.6904 0.0731
vn 0.7886 0.6147 -0.0107
vn -0.7951 -0.6061 0.0208
vn 0.5289 -0.8485 -0.0153
vn -0.5120 0.8571 0.0559
vn 0.4863 0.8734 -0.0253
vn -0.4773 -0.8761 0.0680
vn 0.7110 0.6997 -0.0700
vn -0.7057 -0.7054 0.0659
usemtl Wire2A
s 1
f 111//88 118//89 110//90
f 112//91 119//92 111//88
f 123//93 114//94 115//95
f 124//96 115//95 116//97
f 119//92 126//98 118//89
f 120//99 127//100 119//92
f 123//93 130//101 122//102
f 132//103 123//93 124//96
f 127//100 134//104 126//98
f 128//105 135//106 127//100
f 131//107 138//108 130//101
f 132//103 139//109 131//107
f 135//106 142//110 134//104
f 136//111 143//112 135//106
f 139//109 146//113 138//108
f 140//114 147//115 139//109
f 143//112 150//116 142//110
f 144//117 151//118 143//112
f 147//115 154//119 146//113
f 148//120 155//121 147//115
f 159//122 150//116 151//118
f 160//123 151//118 152//124
f 155//121 162//125 154//119
f 156//126 163//127 155//121
f 111//88 119//92 118//89
f 112//91 120//99 119//92
f 123//93 122//102 114//94
f 124//96 123//93 115//95
f 119//92 127//100 126//98
f 120//99 128//105 127//100
f 123//93 131//107 130//101
f 132//103 131//107 123//93
f 127//100 135//106 134//104
f 128//105 136//111 135//106
f 131//107 139//109 138//108
f 132//103 140//114 139//109
f 135//106 143//112 142//110
f 136//111 144//117 143//112
f 139//109 147//115 146//113
f 140//114 148//120 147//115
f 143//112 151//118 150//116
f 144//117 152//124 151//118
f 147//115 155//121 154//119
f 148//120 156//126 155//121
f 159//122 158//128 150//116
f 160//123 159//122 151//118
f 155//121 163//127 162//125
f 156//126 164//129 163//127
usemtl Wire2B
f 110//90 125//130 117//131
f 113//132 120//99 112//91
f 114//94 121//133 113//132
f 125//130 116//97 117//131
f 126//98 125//130 118//89
f 121//133 128//105 120//99
f 122//102 129//134 121//133
f 133//135 124//96 125//130
f 126//98 141//136 133//135
f 129//134 136//111 128//105
f 130//101 137//137 129//134
f 133//135 140//114 132//103
f 134//104 149//138 141//136
f 137//137 144//117 136//111
f 138//108 145//139 137//137
f 141//136 148//120 140//114
f 150//116 149//138 142//110
f 145//139 152//124 144//117
f 146//113 153//140 145//139
f 149//138 156//126 148//120
f 158//128 157//141 150//116
f 153//140 160//123 152//124
f 154//119 161//142 153//140
f 157//141 164//129 156//126
f 110//90 118//89 125//130
f 113//132 121//133 120//99
f 114//94 122//102 121//133
f 125//130 124//96 116//97
f 126//98 133//135 125//130
f 121//133 129//134 128//105
f 122//102 130//101 129//134
f 133//135 132//103 124//96
f 126//98 134//104 141//136
f 129//134 137//137 136//111
f 130//101 138//108 137//137
f 133//135 141//136 140//114
f 134//104 142//110 149//138
f 137//137 145//139 144//117
f 138//108 146//113 145//139
f 141//136 149//138 148//120
f 150//116 157//141 149//138
f 145//139 153//140 152//124
f 146//113 154//119 153//140
f 149//138 157//141 156//126
f 158//128 165//143 157//141
f 153//140 161//142 160//123
f 154//119 162//125 161//142
f 157//141 165//143 164//129
o Wire3_wire3
v -0.135141 -0.049889 -0.374231
v -0.139397 -0.039393 -0.374934
v -0.149863 -0.035110 -0.375677
v -0.160409 -0.039551 -0.376022
v -0.164859 -0.050111 -0.375769
v -0.160603 -0.060607 -0.375066
v -0.150137 -0.064891 -0.374323
v -0.139591 -0.060450 -0.373978
v -0.165884 -0.032977 -0.265352
v -0.173995 -0.024878 -0.265617
v -0.185737 -0.025115 -0.265888
v -0.193950 -0.033398 -0.266005
v -0.193941 -0.044755 -0.265900
v -0.185895 -0.052457 -0.265634
v -0.174461 -0.052391 -0.265363
v -0.166163 -0.044443 -0.265246
v -0.178777 -0.064144 -0.132619
v -0.189224 -0.068850 -0.132643
v -0.193206 -0.080096 -0.132657
v -0.188461 -0.090866 -0.132652
v -0.177989 -0.094949 -0.132631
v -0.168017 -0.090167 -0.132606
v -0.163975 -0.079396 -0.132593
v -0.168282 -0.068665 -0.132598
v -0.137652 -0.073940 0.010848
v -0.131499 -0.083654 0.010946
v -0.119965 -0.086119 0.011059
v -0.110027 -0.079908 0.011120
v -0.107475 -0.068883 0.011093
v -0.113596 -0.059520 0.010994
v -0.124799 -0.056992 0.010881
v -0.134761 -0.062878 0.010821
v -0.133394 -0.048264 0.151962
v -0.124068 -0.041478 0.152116
v -0.122352 -0.029920 0.152277
v -0.129257 -0.020529 0.152350
v -0.140486 -0.018826 0.152294
v -0.149530 -0.025586 0.152139
v -0.151303 -0.036892 0.151978
v -0.144689 -0.046300 0.151905
v -0.136581 -0.047246 0.277698
v -0.137650 -0.035788 0.277842
v -0.146540 -0.028453 0.277970
v -0.157992 -0.029560 0.278007
v -0.165273 -0.038396 0.277932
v -0.164182 -0.049776 0.277788
v -0.155373 -0.057093 0.277660
v -0.143945 -0.056068 0.277622
v -0.135001 -0.050031 0.375069
v -0.139375 -0.039418 0.375115
v -0.149972 -0.035002 0.375093
v -0.160585 -0.039374 0.375016
v -0.164999 -0.049969 0.374931
v -0.160625 -0.060582 0.374885
v -0.150029 -0.064998 0.374907
v -0.139415 -0.060627 0.374983
vn 0.9670 -0.0078 0.2545
vn 0.9153 -0.3769 0.1418
vn 0.6900 -0.6725 0.2676
vn -0.6607 0.7031 -0.2629
vn -0.4064 0.9124 0.0486
vn 0.0522 0.9937 -0.0985
vn -0.9669 -0.0308 -0.2533
vn -0.9120 0.4069 -0.0508
vn 0.0480 -0.9883 0.1451
vn -0.0396 0.9876 0.1515
vn 0.8907 0.4096 0.1972
vn -0.9803 -0.0771 0.1820
vn -0.9296 -0.3413 -0.1388
vn -0.6886 -0.7225 0.0622
vn 0.7121 0.6984 -0.0712
vn 0.3641 -0.9313 -0.0088
vn -0.7891 0.6141 0.0110
vn 0.2206 -0.9698 0.1039
vn -0.0091 -0.9966 -0.0810
vn 0.8198 -0.5721 -0.0233
vn -0.1034 0.9820 -0.1581
vn 0.9739 -0.0262 -0.2253
vn -0.9672 -0.1847 0.1744
vn -0.5431 -0.8395 0.0147
vn 0.9597 0.2775 0.0433
vn 0.9807 0.1367 -0.1393
vn 0.5016 0.8634 -0.0536
vn -0.9753 -0.1876 -0.1162
vn 0.9496 -0.3132 0.0105
vn 0.2221 -0.9680 0.1164
vn 0.2785 0.9577 0.0723
vn -0.2279 0.9647 -0.1317
vn -0.4812 0.8762 0.0267
vn -0.3095 -0.9457 -0.0990
vn 0.9992 -0.0180 -0.0346
vn 0.4676 -0.8813 -0.0676
vn 0.0052 0.9964 0.0849
vn -0.9565 0.2889 -0.0401
vn -0.7110 0.6997 0.0698
vn 0.0015 -0.9980 -0.0631
vn 0.7057 -0.7054 -0.0659
vn -0.9997 -0.0149 0.0194
vn 0.7285 0.6748 0.1179
vn 0.3208 0.9363 0.1426
vn -0.3969 -0.9072 -0.1392
vn -0.6668 -0.7413 -0.0764
vn -0.7516 0.6136 0.2418
vn -0.5104 -0.8365 0.1993
vn 0.6857 -0.6955 -0.2146
vn 0.6051 0.7684 -0.2082
vn 0.8677 -0.4842 0.1123
vn -0.8267 0.5389 -0.1616
vn 0.8810 0.4669 0.0762
vn -0.8841 -0.4583 -0.0911
vn 0.7256 0.6870 0.0381
vn -0.6981 -0.7150 -0.0355
usemtl Wire3A
s 1
f 166//144 181//145 173//146
f 169//147 176//148 168//149
f 170//150 177//151 169//147
f 181//145 172//152 173//146
f 182//153 181//145 174//154
f 177//151 184//155 176//148
f 178//156 185//157 177//151
f 189//158 180//159 181//145
f 182//153 197//160 189//158
f 185//157 192//161 184//155
f 186//162 193//163 185//157
f 189//158 196//164 188//165
f 190//166 205//167 197//160
f 193//163 200//168 192//161
f 194//169 201//170 193//163
f 197//160 204//171 196//164
f 206//172 205//167 198//173
f 201//170 208//174 200//168
f 202//175 209//176 201//170
f 205//167 212//177 204//171
f 214//178 213//179 206//172
f 209//176 216//180 208//174
f 210//181 217//182 209//176
f 213//179 220//183 212//177
f 166//144 174//154 181//145
f 169//147 177//151 176//148
f 170//150 178//156 177//151
f 181//145 180//159 172//152
f 182//153 189//158 181//145
f 177//151 185//157 184//155
f 178//156 186//162 185//157
f 189//158 188//165 180//159
f 182//153 190//166 197//160
f 185//157 193//163 192//161
f 186//162 194//169 193//163
f 189//158 197//160 196//164
f 190//166 198//173 205//167
f 193//163 201//170 200//168
f 194//169 202//175 201//170
f 197//160 205//167 204//171
f 206//172 213//179 205//167
f 201//170 209//176 208//174
f 202//175 210//181 209//176
f 205//167 213//179 212//177
f 214//178 221//184 213//179
f 209//176 217//182 216//180
f 210//181 218//185 217//182
f 213//179 221//184 220//183
usemtl Wire3B
f 167//186 174//154 166//144
f 168//149 175//187 167//186
f 179//188 170//150 171//189
f 180//159 171//189 172//152
f 175//187 182//153 174//154
f 176//148 183//190 175//187
f 179//188 186//162 178//156
f 188//165 179//188 180//159
f 183//190 190//166 182//153
f 184//155 191//191 183//190
f 187//192 194//169 186//162
f 188//165 195//193 187//192
f 191//191 198//173 190//166
f 192//161 199//194 191//191
f 195//193 202//175 194//169
f 196//164 203//195 195//193
f 199//194 206//172 198//173
f 200//168 207//196 199//194
f 203//195 210//181 202//175
f 204//171 211//197 203//195
f 215//198 206//172 207//196
f 208//174 215//198 207//196
f 211//197 218//185 210//181
f 212//177 219//199 211//197
f 167//186 175//187 174//154
f 168//149 176//148 175//187
f 179//188 178//156 170//150
f 180//159 179//188 171//189
f 175//187 183//190 182//153
f 176//148 184//155 183//190
f 179//188 187//192 186//162
f 188//165 187//192 179//188
f 183//190 191//191 190//166
f 184//155 192//161 191//191
f 187//192 195//193 194//169
f 188//165 196//164 195//193
f 191//191 199//194 198//173
f 192//161 200//168 199//194
f 195//193 203//195 202//175
f 196//164 204//171 203//195
f 199//194 207//196 206//172
f 200//168 208//174 207//196
f 203//195 211//197 210//181
f 204//171 212//177 211//197
f 215//198 214//178 206//172
f 208//174 216//180 215//198
f 211//197 219//199 218//185
f 212//177 220//183 219//199
o Wire4_wire4
v 0.285111 -0.050081 0.375683
v 0.289572 -0.039529 0.375962
v 0.300140 -0.035110 0.375677
v 0.310627 -0.039416 0.374996
v 0.314889 -0.049921 0.374317
v 0.310426 -0.060473 0.374038
v 0.299858 -0.064890 0.374323
v 0.289374 -0.060585 0.375004
v 0.275316 -0.039431 0.324322
v 0.280634 -0.029246 0.324343
v 0.291605 -0.025789 0.324196
v 0.301784 -0.031107 0.323969
v 0.305194 -0.042062 0.323794
v 0.299853 -0.052224 0.323774
v 0.288908 -0.055659 0.323920
v 0.278752 -0.050365 0.324147
v 0.276149 -0.033761 0.265552
v 0.284124 -0.025454 0.265447
v 0.295651 -0.025215 0.265404
v 0.303925 -0.033187 0.265449
v 0.304121 -0.044658 0.265555
v 0.296160 -0.052926 0.265660
v 0.284690 -0.053191 0.265703
v 0.276393 -0.045258 0.265658
v 0.283312 -0.031151 0.201001
v 0.294309 -0.027648 0.200885
v 0.304540 -0.032945 0.200919
v 0.307975 -0.043881 0.201084
v 0.302690 -0.054041 0.201284
v 0.291787 -0.057556 0.201401
v 0.281568 -0.052379 0.201366
v 0.278026 -0.041424 0.201201
v 0.292142 -0.031000 0.132287
v 0.302860 -0.035282 0.132247
v 0.307346 -0.045865 0.132343
v 0.303037 -0.056477 0.132521
v 0.292536 -0.060998 0.132675
v 0.281911 -0.056861 0.132715
v 0.277289 -0.046419 0.132619
v 0.281501 -0.035632 0.132441
v 0.302436 -0.034596 0.061049
v 0.306487 -0.045369 0.061165
v 0.301691 -0.055793 0.061316
v 0.290959 -0.059800 0.061413
v 0.280538 -0.055133 0.061400
v 0.276439 -0.044523 0.061284
v 0.281046 -0.034094 0.061133
v 0.291834 -0.029906 0.061036
v 0.307279 -0.049745 -0.011070
v 0.301330 -0.059565 -0.010869
v 0.290211 -0.062309 -0.010727
v 0.280400 -0.056424 -0.010728
v 0.277602 -0.045341 -0.010870
v 0.283453 -0.035534 -0.011072
v 0.294556 -0.032716 -0.011213
v 0.304458 -0.038584 -0.011213
v 0.296776 -0.058285 -0.082675
v 0.285407 -0.059914 -0.082605
v 0.276226 -0.053109 -0.082572
v 0.274540 -0.041804 -0.082595
v 0.281361 -0.032588 -0.082661
v 0.292697 -0.030897 -0.082731
v 0.301924 -0.037714 -0.082765
v 0.303642 -0.049073 -0.082741
v 0.293283 -0.055180 -0.152065
v 0.284057 -0.048297 -0.152178
v 0.282377 -0.036964 -0.152261
v 0.289177 -0.027769 -0.152266
v 0.300458 -0.026063 -0.152190
v 0.309639 -0.032822 -0.152077
v 0.311398 -0.044126 -0.151994
v 0.304658 -0.053432 -0.151989
v 0.293796 -0.057239 -0.217619
v 0.290210 -0.046290 -0.217806
v 0.295449 -0.036062 -0.217941
v 0.306347 -0.032527 -0.217947
v 0.316499 -0.037637 -0.217819
v 0.320096 -0.048435 -0.217633
v 0.315022 -0.058647 -0.217497
v 0.304156 -0.062346 -0.217492
v 0.290256 -0.061243 -0.277714
v 0.291396 -0.049788 -0.277842
v 0.300326 -0.042559 -0.277954
v 0.311735 -0.043766 -0.277984
v 0.318968 -0.052617 -0.277915
v 0.317866 -0.063956 -0.277788
v 0.309052 -0.071224 -0.277676
v 0.297604 -0.070133 -0.277645
v 0.285799 -0.060160 -0.330736
v 0.289477 -0.049277 -0.330613
v 0.299776 -0.044196 -0.330591
v 0.310643 -0.047888 -0.330682
v 0.315727 -0.058157 -0.330833
v 0.312076 -0.069005 -0.330956
v 0.301814 -0.074109 -0.330979
v 0.290925 -0.070456 -0.330887
v 0.285001 -0.049997 -0.375069
v 0.289377 -0.039515 -0.374445
v 0.299975 -0.035174 -0.374146
v 0.310587 -0.039520 -0.374347
v 0.314999 -0.050003 -0.374931
v 0.310623 -0.060485 -0.375555
v 0.300025 -0.064826 -0.375854
v 0.289413 -0.060480 -0.375653
vn -0.6768 0.6906 0.2548
vn -0.9888 0.1012 0.1093
vn -0.9812 -0.0345 0.1898
vn 0.0673 0.9916 0.1100
vn 0.0396 0.9860 0.1620
vn 0.6327 -0.7629 -0.1330
vn 0.9789 -0.0282 -0.2020
vn 0.6870 -0.6800 -0.2561
vn 0.0276 -0.9840 -0.1760
vn -0.6368 0.7573 0.1444
vn -0.9289 0.3694 -0.0248
vn -0.4028 0.9150 -0.0211
vn 0.9329 -0.3592 0.0244
vn 0.9934 -0.0722 -0.0886
vn -0.1144 -0.9897 -0.0860
vn 0.4008 -0.9159 0.0203
vn -0.6416 0.7650 -0.0550
vn 0.3564 0.9343 -0.0056
vn 0.0909 0.9944 -0.0537
vn 0.6488 -0.7596 0.0455
vn -0.3697 -0.9291 0.0039
vn -0.0717 -0.9964 0.0456
vn -0.0152 0.9996 -0.0222
vn 0.7685 0.6393 -0.0237
vn 0.7036 0.7101 -0.0250
vn 0.0178 -0.9998 0.0107
vn -0.7570 -0.6532 0.0164
vn -0.6866 -0.7269 0.0139
vn 0.7222 0.6915 -0.0106
vn 0.9998 -0.0006 -0.0162
vn 0.9995 -0.0294 -0.0023
vn -0.7301 -0.6833 0.0027
vn -0.9995 -0.0304 0.0060
vn -0.9995 0.0299 -0.0047
vn 0.9878 -0.1550 -0.0151
vn 0.6821 -0.7312 0.0048
vn 0.5931 -0.8051 -0.0057
vn -0.9902 0.1382 0.0167
vn -0.6894 0.7243 -0.0116
vn -0.5967 0.8024 0.0081
vn 0.4942 -0.8690 -0.0230
vn -0.1403 -0.9901 0.0070
vn -0.2617 -0.9638 -0.0511
vn -0.5308 0.8470 0.0274
vn 0.1510 0.9885 -0.0052
vn 0.2241 0.9727 0.0600
vn -0.2465 -0.9674 -0.0579
vn -0.8595 -0.5089 -0.0475
vn -0.8538 -0.5080 -0.1137
vn 0.2331 0.9723 0.0152
vn 0.8520 0.5201 0.0590
vn 0.8404 0.5336 0.0944
vn -0.9945 0.0670 -0.0803
vn -0.9591 0.2597 -0.1122
vn 0.7602 0.6486 -0.0358
vn 0.9691 -0.2125 0.1254
vn 0.9958 -0.0600 0.0681
vn -0.8803 0.4741 0.0158
vn -0.7591 -0.6463 0.0769
vn -0.2997 0.9507 -0.0792
vn -0.6381 0.7548 -0.1523
vn 0.9597 0.2733 -0.0661
vn 0.6656 -0.7335 0.1375
vn 0.8788 -0.4769 0.0121
vn -0.9948 -0.0976 0.0296
vn -0.9523 -0.2926 0.0870
vn -0.0782 0.9929 0.0894
vn 0.9976 0.0388 -0.0566
vn 0.2963 -0.9516 0.0815
vn 0.7331 -0.6727 -0.0998
vn -0.7626 0.6401 0.0929
vn -0.9993 0.0333 0.0170
vn -0.6866 0.7110 0.1518
vn 0.7171 -0.6816 -0.1454
vn 0.0009 -0.9792 -0.2029
vn 0.0619 -0.9940 -0.0898
vn -0.0009 0.9792 0.2028
vn 0.9993 0.0377 -0.0013
vn -0.7840 -0.6204 0.0193
vn -0.6740 -0.7387 0.0028
vn 0.7490 0.6623 0.0142
vn 0.7396 0.6724 -0.0290
vn -0.9196 -0.3926 -0.0148
vn 0.9123 0.4093 0.0135
vn -0.9964 0.0808 -0.0258
vn 0.9960 -0.0870 0.0171
vn -0.7244 0.6892 -0.0091
vn 0.7105 -0.7037 -0.0015
vn 0.0197 0.9997 -0.0143
vn -0.0352 -0.9993 0.0068
vn 0.8074 0.5898 -0.0153
vn -0.7962 -0.6048 0.0162
vn 0.9674 -0.2521 0.0234
vn -0.9722 0.2333 -0.0163
vn 0.5137 -0.8558 0.0616
vn -0.5058 0.8599 -0.0677
vn 0.0928 0.9885 -0.1192
vn -0.4543 -0.8845 0.1058
vn -0.0650 -0.9857 0.1550
vn 0.4847 0.8679 -0.1083
vn -0.6460 -0.7624 -0.0384
vn 0.6703 0.7418 0.0173
vn -0.7213 -0.6792 -0.1354
vn 0.6802 0.7186 0.1447
usemtl Wire6A
s 1
f 223//200 230//201 222//202
f 232//203 223//200 224//204
f 235//205 226//206 227//207
f 228//208 235//205 227//207
f 231//209 238//210 230//201
f 232//203 239//211 231//209
f 235//205 242//212 234//213
f 236//214 243//215 235//205
f 239//211 246//216 238//210
f 240//217 247//218 239//211
f 243//215 250//219 242//212
f 244//220 251//221 243//215
f 247//218 254//222 246//216
f 248//223 255//224 247//218
f 251//221 258//225 250//219
f 252//226 259//227 251//221
f 255//224 262//228 254//222
f 256//229 263//230 255//224
f 259//227 266//231 258//225
f 260//232 267//233 259//227
f 263//230 270//234 262//228
f 264//235 271//236 263//230
f 267//233 274//237 266//231
f 268//238 275//239 267//233
f 271//236 278//240 270//234
f 272//241 279//242 271//236
f 275//239 282//243 274//237
f 276//244 283//245 275//239
f 279//242 286//246 278//240
f 280//247 287//248 279//242
f 283//245 290//249 282//243
f 284//250 291//251 283//245
f 295//252 286//246 287//248
f 288//253 295//252 287//248
f 291//251 298//254 290//249
f 292//255 299//256 291//251
f 303//257 294//258 295//252
f 304//259 295//252 296//260
f 299//256 306//261 298//254
f 300//262 307//263 299//256
f 303//257 310//264 302//265
f 312//266 303//257 304//259
f 307//263 314//267 306//261
f 308//268 315//269 307//263
f 311//270 318//271 310//264
f 312//266 319//272 311//270
f 323//273 314//267 315//269
f 324//274 315//269 316//275
f 223//200 231//209 230//201
f 232//203 231//209 223//200
f 235//205 234//213 226//206
f 228//208 236//214 235//205
f 231//209 239//211 238//210
f 232//203 240//217 239//211
f 235//205 243//215 242//212
f 236//214 244//220 243//215
f 239//211 247//218 246//216
f 240//217 248//223 247//218
f 243//215 251//221 250//219
f 244//220 252//226 251//221
f 247//218 255//224 254//222
f 248//223 256//229 255//224
f 251//221 259//227 258//225
f 252//226 260//232 259//227
f 255//224 263//230 262//228
f 256//229 264//235 263//230
f 259//227 267//233 266//231
f 260//232 268//238 267//233
f 263//230 271//236 270//234
f 264//235 272//241 271//236
f 267//233 275//239 274//237
f 268//238 276//244 275//239
f 271//236 279//242 278//240
f 272//241 280//247 279//242
f 275//239 283//245 282//243
f 276//244 284//250 283//245
f 279//242 287//248 286//246
f 280//247 288//253 287//248
f 283//245 291//251 290//249
f 284//250 292//255 291//251
f 295//252 294//258 286//246
f 288//253 296//260 295//252
f 291//251 299//256 298//254
f 292//255 300//262 299//256
f 303//257 302//265 294//258
f 304//259 303//257 295//252
f 299//256 307//263 306//261
f 300//262 308//268 307//263
f 303//257 311//270 310//264
f 312//266 311//270 303//257
f 307//263 315//269 314//267
f 308//268 316//275 315//269
f 311//270 319//272 318//271
f 312//266 320//276 319//272
f 323//273 322//277 314//267
f 324//274 323//273 315//269
usemtl Wire6B
f 222//202 237//278 229//279
f 233//280 224//204 225//281
f 234//213 225//281 226//206
f 229//279 236//214 228//208
f 230//201 245//282 237//278
f 233//280 240//217 232//203
f 234//213 241//283 233//280
f 237//278 244//220 236//214
f 238//210 253//284 245//282
f 241//283 248//223 240//217
f 242//212 249//285 241//283
f 245//282 252//226 244//220
f 246//216 261//286 253//284
f 249//285 256//229 248//223
f 250//219 257//287 249//285
f 253//284 260//232 252//226
f 254//222 269//288 261//286
f 257//287 264//235 256//229
f 258//225 265//289 257//287
f 261//286 268//238 260//232
f 262//228 277//290 269//288
f 265//289 272//241 264//235
f 266//231 273//291 265//289
f 269//288 276//244 268//238
f 270//234 285//292 277//290
f 273//291 280//247 272//241
f 274//237 281//293 273//291
f 277//290 284//250 276//244
f 278//240 293//294 285//292
f 281//293 288//253 280//247
f 282//243 289//295 281//293
f 285//292 292//255 284//250
f 294//258 293//294 286//246
f 289//295 296//260 288//253
f 290//249 297//296 289//295
f 293//294 300//262 292//255
f 294//258 309//297 301//298
f 297//296 304//259 296//260
f 298//254 305//299 297//296
f 301//298 308//268 300//262
f 302//265 317//300 309//297
f 305//299 312//266 304//259
f 306//261 313//301 305//299
f 309//297 316//275 308//268
f 310//264 325//302 317//300
f 321//303 312//266 313//301
f 322//277 313//301 314//267
f 317//300 324//274 316//275
f 222//202 230//201 237//278
f 233//280 232//203 224//204
f 234//213 233//280 225//281
f 229//279 237//278 236//214
f 230//201 238//210 245//282
f 233//280 241//283 240//217
f 234//213 242//212 241//283
f 237//278 245//282 244//220
f 238//210 246//216 253//284
f 241//283 249//285 248//223
f 242//212 250//219 249//285
f 245//282 253//284 252//226
f 246//216 254//222 261//286
f 249//285 257//287 256//229
f 250//219 258//225 257//287
f 253//284 261//286 260//232
f 254//222 262//228 269//288
f 257//287 265//289 264//235
f 258//225 266//231 265//289
f 261//286 269//288 268//238
f 262//228 270//234 277//290
f 265//289 273//291 272//241
f 266//231 274//237 273//291
f 269//288 277//290 276//244
f 270//234 278//240 285//292
f 273//291 281//293 280//247
f 274//237 282//243 281//293
f 277//290 285//292 284//250
f 278//240 286//246 293//294
f 281//293 289//295 288//253
f 282//243 290//249 289//295
f 285//292 293//294 292//255
f 294//258 301//298 293//294
f 289//295 297//296 296//260
f 290//249 298//254 297//296
f 293//294 301//298 300//262
f 294//258 302//265 309//297
f 297//296 305//299 304//259
f 298//254 306//261 305//299
f 301//298 309//297 308//268
f 302//265 310//264 317//300
f 305//299 313//301 312//266
f 306//261 314//267 313//301
f 309//297 317//300 316//275
f 310//264 318//271 325//302
f 321//303 320//276 312//266
f 322//277 321//303 313//301
f 317//300 325//302 324//274
o Wire5_wire5
v 0.135400 -0.051414 0.366935
v 0.139450 -0.042039 0.366333
v 0.149017 -0.038347 0.365834
v 0.158495 -0.042500 0.365730
v 0.162337 -0.052061 0.366081
v 0.158291 -0.061434 0.366683
v 0.148726 -0.065130 0.367182
v 0.139245 -0.060980 0.367286
v 0.130664 -0.057220 0.323162
v 0.135791 -0.047994 0.322991
v 0.145951 -0.045117 0.322885
v 0.155195 -0.050262 0.322905
v 0.158120 -0.060417 0.323040
v 0.153004 -0.069646 0.323211
v 0.142840 -0.072537 0.323318
v 0.133585 -0.067390 0.323298
v 0.134232 -0.052954 0.264569
v 0.141637 -0.045659 0.264723
v 0.152028 -0.045725 0.264912
v 0.159357 -0.053106 0.265026
v 0.159339 -0.063517 0.264998
v 0.151931 -0.070868 0.264844
v 0.141484 -0.070807 0.264654
v 0.134157 -0.063373 0.264540
v 0.146632 -0.048940 0.200262
v 0.156339 -0.046067 0.200510
v 0.165244 -0.050824 0.200787
v 0.168208 -0.060458 0.200930
v 0.163459 -0.069405 0.200855
v 0.153684 -0.072394 0.200607
v 0.144666 -0.067583 0.200330
v 0.141767 -0.057837 0.200187
v 0.155633 -0.056795 0.131867
v 0.164761 -0.060525 0.132030
v 0.168675 -0.069487 0.132232
v 0.165134 -0.078526 0.132353
v 0.156127 -0.082408 0.132324
v 0.146865 -0.078764 0.132161
v 0.142868 -0.069670 0.131959
v 0.146541 -0.060546 0.131838
v 0.148062 -0.063522 0.061010
v 0.151479 -0.072537 0.060957
v 0.147692 -0.081310 0.060965
v 0.138910 -0.084808 0.061030
v 0.130176 -0.080983 0.061113
v 0.126600 -0.071965 0.061166
v 0.130398 -0.063052 0.061158
v 0.139335 -0.059555 0.061094
v 0.142979 -0.050233 -0.010332
v 0.138134 -0.058520 -0.010555
v 0.128882 -0.061035 -0.010699
v 0.120600 -0.056374 -0.010680
v 0.118051 -0.047233 -0.010508
v 0.122772 -0.038878 -0.010285
v 0.132093 -0.036255 -0.010141
v 0.140496 -0.040979 -0.010160
v 0.156139 -0.041333 -0.077814
v 0.146525 -0.043402 -0.077981
v 0.138197 -0.038124 -0.078082
v 0.135968 -0.028582 -0.078056
v 0.141073 -0.020304 -0.077920
v 0.150618 -0.018103 -0.077753
v 0.159070 -0.023359 -0.077652
v 0.161370 -0.033026 -0.077678
v 0.164586 -0.045766 -0.139251
v 0.155639 -0.041048 -0.139248
v 0.152535 -0.031407 -0.139221
v 0.157019 -0.022398 -0.139187
v 0.166467 -0.019209 -0.139166
v 0.175460 -0.023773 -0.139169
v 0.178694 -0.033511 -0.139196
v 0.174169 -0.042681 -0.139230
v 0.164468 -0.050610 -0.196771
v 0.159357 -0.041642 -0.196666
v 0.161975 -0.031671 -0.196601
v 0.170731 -0.026392 -0.196616
v 0.180563 -0.028834 -0.196700
v 0.185806 -0.037734 -0.196806
v 0.183258 -0.047889 -0.196870
v 0.174374 -0.053259 -0.196856
v 0.160346 -0.051846 -0.253297
v 0.159583 -0.041417 -0.253208
v 0.166344 -0.033463 -0.253234
v 0.176643 -0.032516 -0.253361
v 0.184538 -0.039136 -0.253514
v 0.185416 -0.049592 -0.253604
v 0.178644 -0.057734 -0.253577
v 0.168225 -0.058656 -0.253450
v 0.151875 -0.051026 -0.311811
v 0.154333 -0.040755 -0.311848
v 0.163291 -0.035209 -0.312078
v 0.173486 -0.037567 -0.312364
v 0.179016 -0.046498 -0.312540
v 0.176610 -0.056811 -0.312502
v 0.167620 -0.062458 -0.312273
v 0.157365 -0.060037 -0.311987
v 0.139375 -0.050217 -0.363821
v 0.143041 -0.040558 -0.364011
v 0.152415 -0.036344 -0.364442
v 0.161997 -0.040023 -0.364863
v 0.166199 -0.049463 -0.365026
v 0.162543 -0.059130 -0.364837
v 0.153160 -0.063370 -0.364405
v 0.143564 -0.059669 -0.363985
vn -0.6417 0.7666 -0.0217
vn -0.9949 0.0453 0.0901
vn -0.6718 0.7386 -0.0563
vn 0.0961 0.9930 -0.0687
vn 0.0255 0.9872 -0.1574
vn 0.7168 -0.6950 0.0562
vn 0.9906 -0.1359 -0.0139
vn 0.9961 0.0099 -0.0875
vn 0.0007 -0.9841 0.1774
vn 0.6008 -0.7978 0.0489
vn -0.9180 0.3878 -0.0829
vn -0.9949 0.0924 0.0401
vn -0.3828 0.9229 -0.0405
vn 0.9194 -0.3862 0.0741
vn -0.1281 -0.9882 0.0834
vn 0.3588 -0.9333 0.0095
vn -0.6059 0.7869 -0.1170
vn 0.3767 0.9260 0.0235
vn 0.1158 0.9899 -0.0821
vn 0.6486 -0.7547 0.0990
vn -0.7783 -0.6277 -0.0158
vn -0.3865 -0.9207 -0.0542
vn 0.0269 0.9871 -0.1577
vn 0.7697 0.6384 -0.0090
vn 0.7013 0.6911 -0.1747
vn -0.0983 -0.9914 0.0865
vn 0.0452 -0.9962 0.0748
vn -0.6658 -0.7340 0.1335
vn 0.9806 -0.0300 -0.1937
vn 0.9933 0.0015 -0.1152
vn -0.7049 -0.7092 0.0123
vn -0.9943 0.0032 0.1066
vn -0.9872 -0.0326 0.1562
vn 0.5904 -0.7758 -0.2225
vn 0.7429 0.6679 -0.0448
vn 0.6507 -0.7270 -0.2189
vn -0.9919 0.1240 -0.0291
vn -0.6930 0.6787 0.2430
vn -0.6386 0.7516 0.1647
vn -0.1736 -0.9727 -0.1540
vn 0.9902 -0.1333 0.0404
vn -0.7793 -0.5608 -0.2796
vn -0.1448 -0.9400 -0.3088
vn -0.5661 0.8234 -0.0394
vn 0.0670 0.9551 0.2886
vn 0.1471 0.9766 0.1567
vn -0.7595 -0.6446 -0.0869
vn 0.5833 -0.8082 0.0807
vn -0.9787 0.0550 -0.1975
vn 0.0904 0.9948 -0.0454
vn 0.7620 0.5854 0.2768
vn 0.7531 0.6492 0.1065
vn -0.9890 -0.1478 -0.0094
vn -0.0719 -0.9943 0.0790
vn -0.8028 0.5889 -0.0925
vn 0.6084 0.7922 -0.0463
vn 0.9781 -0.0537 0.2010
vn 0.9891 0.1387 0.0491
vn -0.9511 0.3060 0.0421
vn -0.6084 -0.7883 0.0910
vn 0.8895 0.4489 -0.0852
vn 0.8028 -0.5845 0.1175
vn 0.9531 -0.3011 -0.0309
vn -0.9723 -0.1562 0.1737
vn -0.8877 -0.4464 0.1129
vn -0.1496 0.9887 -0.0025
vn -0.4522 0.8893 -0.0681
vn 0.9693 0.1572 -0.1888
vn 0.4733 -0.8799 0.0413
vn 0.8083 -0.5748 -0.1275
vn -0.7353 0.6548 0.1748
vn -0.7950 0.5947 0.1192
vn -0.0751 0.9971 0.0081
vn 0.9703 0.0329 -0.2396
vn 0.1773 -0.9842 -0.0019
vn 0.6894 -0.7044 -0.1688
vn -0.9722 -0.0211 0.2333
vn -0.0186 -0.9998 0.0079
vn -0.7170 -0.6707 0.1897
vn 0.7040 0.6900 -0.1681
vn 0.7849 0.6160 -0.0668
vn -0.9257 -0.3693 -0.0816
vn -0.7797 -0.6209 0.0802
vn 0.9196 0.3861 0.0720
vn -0.9879 0.1079 -0.1111
vn 0.9950 -0.0761 0.0648
vn -0.7125 0.7012 -0.0267
vn 0.7250 -0.6882 -0.0253
vn -0.0343 -0.9908 -0.1308
vn 0.0352 0.9855 0.1661
vn -0.7937 -0.5715 -0.2082
vn 0.7681 0.5903 0.2481
vn -0.9554 0.1954 -0.2213
vn 0.9526 -0.1633 0.2564
vn -0.6286 0.7578 -0.1751
vn 0.6315 -0.7500 0.1966
vn -0.1334 0.9842 -0.1162
vn -0.2897 -0.9524 0.0945
vn 0.1397 -0.9790 0.1484
vn 0.3019 0.9476 -0.1044
vn -0.5672 -0.8136 0.1276
vn 0.5766 0.8049 -0.1399
vn -0.6975 -0.6968 0.1667
vn 0.6514 0.7409 -0.1634
usemtl Wire5A
s 1
f 335//304 326//305 327//306
f 336//307 327//306 328//308
f 331//309 338//310 330//311
f 332//312 339//313 331//309
f 335//304 342//314 334//315
f 336//307 343//316 335//304
f 339//313 346//317 338//310
f 340//318 347//319 339//313
f 343//316 350//320 342//314
f 344//321 351//322 343//316
f 347//319 354//323 346//317
f 356//324 347//319 348//325
f 351//322 358//326 350//320
f 352//327 359//328 351//322
f 355//329 362//330 354//323
f 356//324 363//331 355//329
f 367//332 358//326 359//328
f 360//333 367//332 359//328
f 363//331 370//334 362//330
f 364//335 371//336 363//331
f 375//337 366//338 367//332
f 368//339 375//337 367//332
f 371//336 378//340 370//334
f 372//341 379//342 371//336
f 383//343 374//344 375//337
f 384//345 375//337 376//346
f 379//342 386//347 378//340
f 380//348 387//349 379//342
f 391//350 382//351 383//343
f 392//352 383//343 384//345
f 387//349 394//353 386//347
f 388//354 395//355 387//349
f 399//356 390//357 391//350
f 400//358 391//350 392//352
f 395//355 402//359 394//353
f 396//360 403//361 395//355
f 407//362 398//363 399//356
f 400//358 407//362 399//356
f 403//361 410//364 402//359
f 404//365 411//366 403//361
f 407//362 414//367 406//368
f 416//369 407//362 408//370
f 411//366 418//371 410//364
f 412//372 419//373 411//366
f 423//374 414//367 415//375
f 424//376 415//375 416//369
f 419//373 426//377 418//371
f 420//378 427//379 419//373
f 335//304 334//315 326//305
f 336//307 335//304 327//306
f 331//309 339//313 338//310
f 332//312 340//318 339//313
f 335//304 343//316 342//314
f 336//307 344//321 343//316
f 339//313 347//319 346//317
f 340//318 348//325 347//319
f 343//316 351//322 350//320
f 344//321 352//327 351//322
f 347//319 355//329 354//323
f 356//324 355//329 347//319
f 351//322 359//328 358//326
f 352//327 360//333 359//328
f 355//329 363//331 362//330
f 356//324 364//335 363//331
f 367//332 366//338 358//326
f 360//333 368//339 367//332
f 363//331 371//336 370//334
f 364//335 372//341 371//336
f 375//337 374//344 366//338
f 368//339 376//346 375//337
f 371//336 379//342 378//340
f 372//341 380//348 379//342
f 383//343 382//351 374//344
f 384//345 383//343 375//337
f 379//342 387//349 386//347
f 380//348 388//354 387//349
f 391//350 390//357 382//351
f 392//352 391//350 383//343
f 387//349 395//355 394//353
f 388//354 396//360 395//355
f 399//356 398//363 390//357
f 400//358 399//356 391//350
f 395//355 403//361 402//359
f 396//360 404//365 403//361
f 407//362 406//368 398//363
f 400//358 408//370 407//362
f 403//361 411//366 410//364
f 404//365 412//372 411//366
f 407//362 415//375 414//367
f 416//369 415//375 407//362
f 411//366 419//373 418//371
f 412//372 420//378 419//373
f 423//374 422//380 414//367
f 424//376 423//374 415//375
f 419//373 427//379 426//377
f 420//378 428//381 427//379
usemtl Wire5B
f 334//315 333//382 326//305
f 329//383 336//307 328//308
f 330//311 337//384 329//383
f 333//382 340//318 332//312
f 334//315 349//385 341//386
f 337//384 344//321 336//307
f 338//310 345//387 337//384
f 341//386 348//325 340//318
f 342//314 357//388 349//385
f 345//387 352//327 344//321
f 346//317 353//389 345//387
f 349//385 356//324 348//325
f 350//320 365//390 357//388
f 353//389 360//333 352//327
f 354//323 361//391 353//389
f 365//390 356//324 357//388
f 366//338 365//390 358//326
f 361//391 368//339 360//333
f 362//330 369//392 361//391
f 373//393 364//335 365//390
f 374//344 373//393 366//338
f 369//392 376//346 368//339
f 370//334 377//394 369//392
f 373//393 380//348 372//341
f 382//351 381//395 374//344
f 377//394 384//345 376//346
f 378//340 385//396 377//394
f 381//395 388//354 380//348
f 390//357 389//397 382//351
f 385//396 392//352 384//345
f 386//347 393//398 385//396
f 389//397 396//360 388//354
f 398//363 397//399 390//357
f 393//398 400//358 392//352
f 394//353 401//400 393//398
f 397//399 404//365 396//360
f 398//363 413//401 405//402
f 401//400 408//370 400//358
f 402//359 409//403 401//400
f 405//402 412//372 404//365
f 406//368 421//404 413//401
f 417//405 408//370 409//403
f 410//364 417//405 409//403
f 413//401 420//378 412//372
f 414//367 429//406 421//404
f 425//407 416//369 417//405
f 426//377 417//405 418//371
f 421//404 428//381 420//378
f 334//315 341//386 333//382
f 329//383 337//384 336//307
f 330//311 338//310 337//384
f 333//382 341//386 340//318
f 334//315 342//314 349//385
f 337//384 345//387 344//321
f 338//310 346//317 345//387
f 341//386 349//385 348//325
f 342//314 350//320 357//388
f 345//387 353//389 352//327
f 346//317 354//323 353//389
f 349//385 357//388 356//324
f 350//320 358//326 365//390
f 353//389 361//391 360//333
f 354//323 362//330 361//391
f 365//390 364//335 356//324
f 366//338 373//393 365//390
f 361//391 369//392 368//339
f 362//330 370//334 369//392
f 373//393 372//341 364//335
f 374//344 381//395 373//393
f 369//392 377//394 376//346
f 370//334 378//340 377//394
f 373//393 381//395 380//348
f 382//351 389//397 381//395
f 377//394 385//396 384//345
f 378//340 386//347 385//396
f 381//395 389//397 388//354
f 390//357 397//399 389//397
f 385//396 393//398 392//352
f 386//347 394//353 393//398
f 389//397 397//399 396//360
f 398//363 405//402 397//399
f 393//398 401//400 400//358
f 394//353 402//359 401//400
f 397//399 405//402 404//365
f 398//363 406//368 413//401
f 401//400 409//403 408//370
f 402//359 410//364 409//403
f 405//402 413//401 412//372
f 406//368 414//367 421//404
f 417//405 416//369 408//370
f 410//364 418//371 417//405
f 413//401 421//404 420//378
f 414//367 422//380 429//406
f 425//407 424//376 416//369
f 426//377 425//407 417//405
f 421//404 429//406 428//381
o Wire6_wire6
v 0.014858 -0.049938 -0.374229
v 0.010636 -0.039426 -0.374931
v 0.000183 -0.035109 -0.375674
v -0.010377 -0.039519 -0.376022
v -0.014858 -0.050066 -0.375771
v -0.010635 -0.060575 -0.375069
v -0.000186 -0.064891 -0.374326
v 0.010373 -0.060485 -0.373978
v 0.001824 -0.037175 -0.331011
v -0.001783 -0.026356 -0.331549
v -0.012064 -0.021332 -0.332090
v -0.022956 -0.025066 -0.332316
v -0.028063 -0.035318 -0.332095
v -0.024438 -0.046058 -0.331557
v -0.014228 -0.051057 -0.331017
v -0.003356 -0.047400 -0.330791
v -0.001786 -0.027484 -0.291521
v -0.003759 -0.016202 -0.291852
v -0.013273 -0.009626 -0.292141
v -0.024681 -0.011650 -0.292218
v -0.031264 -0.021008 -0.292040
v -0.029239 -0.032178 -0.291709
v -0.019827 -0.038686 -0.291420
v -0.008470 -0.036780 -0.291342
v 0.004027 -0.022333 -0.251727
v 0.004729 -0.010869 -0.251847
v -0.003023 -0.002203 -0.251884
v -0.014609 -0.001473 -0.251816
v -0.023185 -0.009020 -0.251683
v -0.023803 -0.020368 -0.251563
v -0.016159 -0.028945 -0.251527
v -0.004657 -0.029794 -0.251595
v 0.016815 -0.026352 -0.207587
v 0.021395 -0.015797 -0.207544
v 0.017091 -0.004996 -0.207388
v 0.006492 -0.000354 -0.207212
v -0.004127 -0.004521 -0.207118
v -0.008605 -0.014987 -0.207161
v -0.004390 -0.025681 -0.207317
v 0.006108 -0.030413 -0.207493
v 0.027586 -0.045302 -0.155103
v 0.036757 -0.038319 -0.154963
v 0.038312 -0.026842 -0.154696
v 0.031372 -0.017671 -0.154459
v 0.020081 -0.016138 -0.154391
v 0.011016 -0.023072 -0.154531
v 0.009418 -0.034446 -0.154798
v 0.016247 -0.043670 -0.155035
v 0.015874 -0.074480 -0.090200
v 0.027388 -0.075421 -0.090050
v 0.036198 -0.067976 -0.089820
v 0.037150 -0.056575 -0.089643
v 0.029759 -0.047885 -0.089624
v 0.018342 -0.046931 -0.089774
v 0.009511 -0.054296 -0.090005
v 0.008441 -0.065708 -0.090181
v -0.018541 -0.073756 -0.010906
v -0.012840 -0.083839 -0.010814
v -0.001711 -0.086957 -0.010750
v 0.008290 -0.081324 -0.010750
v 0.011336 -0.070296 -0.010815
v 0.005687 -0.060304 -0.010907
v -0.005386 -0.057117 -0.010971
v -0.015451 -0.062638 -0.010971
v -0.023442 -0.044839 0.077392
v -0.029796 -0.054512 0.077434
v -0.027427 -0.065907 0.077367
v -0.017736 -0.072261 0.077230
v -0.006506 -0.069868 0.077103
v -0.000310 -0.060231 0.077061
v -0.002647 -0.048971 0.077128
v -0.012163 -0.042555 0.077266
v -0.006915 -0.037303 0.167338
v -0.018439 -0.037149 0.167369
v -0.026731 -0.045383 0.167272
v -0.026767 -0.057003 0.167103
v -0.018595 -0.065199 0.166961
v -0.007109 -0.065161 0.166930
v 0.000885 -0.057031 0.167028
v 0.001041 -0.045571 0.167197
v -0.001239 -0.043380 0.251673
v -0.009786 -0.035698 0.251732
v -0.021333 -0.036418 0.251704
v -0.028999 -0.045169 0.251606
v -0.028247 -0.056700 0.251495
v -0.019650 -0.064194 0.251436
v -0.008265 -0.063422 0.251464
v -0.000666 -0.054845 0.251561
v 0.001548 -0.047348 0.323018
v -0.003649 -0.037125 0.323175
v -0.014605 -0.033627 0.323398
v -0.024845 -0.038963 0.323557
v -0.028321 -0.049932 0.323558
v -0.023049 -0.060098 0.323401
v -0.012186 -0.063510 0.323178
v -0.001986 -0.058271 0.323020
v 0.014686 -0.050066 0.373855
v 0.010464 -0.039442 0.374250
v 0.000114 -0.035002 0.375084
v -0.010303 -0.039349 0.375869
v -0.014686 -0.049934 0.376145
v -0.010464 -0.060557 0.375750
v -0.000114 -0.064998 0.374916
v 0.010303 -0.060651 0.374131
vn 0.0721 0.9588 -0.2747
vn 0.7432 0.6661 -0.0621
vn 0.7656 0.6424 0.0348
vn -0.6432 0.6522 -0.4010
vn 0.0590 0.9550 -0.2904
vn -0.1019 -0.9575 0.2696
vn -0.6503 -0.7587 0.0378
vn 0.0356 -0.9511 0.3066
vn 0.6086 -0.7147 0.3446
vn 0.6449 -0.6500 0.4020
vn 0.8238 0.5342 -0.1897
vn -0.5481 0.8163 -0.1822
vn -0.6326 0.6963 -0.3390
vn -0.2360 -0.9352 0.2641
vn -0.7643 -0.6435 0.0409
vn 0.5085 -0.8336 0.2157
vn 0.3978 0.8959 -0.1976
vn 0.1851 0.9472 -0.2618
vn -0.3352 0.9420 -0.0127
vn -0.4400 -0.8640 0.2446
vn -0.8472 -0.5071 0.1581
vn 0.6927 0.7102 -0.1252
vn 0.8972 0.3312 -0.2920
vn 0.0297 0.9916 0.1258
vn -0.9401 0.0108 0.3407
vn -0.9104 -0.2963 0.2888
vn 0.3012 -0.9528 0.0360
vn -0.7209 -0.6707 0.1745
vn 0.9632 0.2662 -0.0378
vn 0.9482 0.0254 -0.3167
vn 0.5232 0.8241 0.2172
vn -0.8193 0.4671 0.3325
vn -0.0341 -0.9919 -0.1220
vn -0.9670 -0.2416 0.0805
vn 0.8815 -0.4719 0.0150
vn 0.8540 -0.4402 -0.2773
vn 0.9418 0.2455 0.2296
vn -0.2969 0.9127 0.2808
vn -0.4874 -0.8397 -0.2395
vn -0.8924 0.4511 -0.0137
vn 0.0926 -0.9951 0.0325
vn 0.3312 -0.9244 -0.1888
vn 0.7465 -0.6409 0.1787
vn 0.6023 0.7913 0.1053
vn -0.9093 -0.3020 -0.2862
vn -0.1169 0.9898 -0.0815
vn -0.8375 -0.5464 0.0114
vn -0.6062 -0.7873 -0.1126
vn -0.2037 -0.9743 0.0964
vn 0.9873 -0.1545 0.0378
vn 0.1748 0.9783 -0.1109
vn -0.7800 0.5882 -0.2134
vn -0.9190 0.3933 -0.0264
vn -0.9783 0.1924 -0.0769
vn -0.9262 -0.3768 0.0057
vn 0.9259 -0.3777 0.0049
vn 0.8278 0.5578 -0.0593
vn 0.9282 0.3710 -0.0269
vn -0.4453 0.8951 -0.0206
vn -0.3671 0.9289 -0.0486
vn -0.9476 0.3193 -0.0120
vn 0.4367 -0.8995 0.0109
vn 0.3952 -0.9181 0.0288
vn 0.9429 -0.3331 0.0014
vn -0.1123 0.9933 0.0270
vn 0.3243 0.9457 -0.0206
vn -0.7684 0.6301 0.1115
vn 0.0569 -0.9984 0.0046
vn -0.3234 -0.9462 0.0105
vn 0.7481 -0.6568 -0.0938
vn 0.0502 0.9984 0.0231
vn 0.6244 0.7772 -0.0775
vn -0.6666 0.7178 0.2009
vn -0.6781 -0.7203 0.1460
vn -0.6561 -0.7476 0.1023
vn 0.0345 -0.9983 -0.0466
vn 0.7233 0.6719 -0.1595
vn 0.7024 -0.6802 -0.2097
vn 0.9495 -0.0498 0.3099
vn 0.9746 -0.0599 0.2158
vn -0.9774 0.0517 -0.2049
vn -0.9590 -0.0668 -0.2756
vn 0.9754 -0.2196 0.0184
vn -0.9759 0.2175 -0.0179
vn 0.8730 -0.4434 -0.2031
vn -0.8772 0.4476 0.1737
vn -0.6382 0.7037 0.3122
vn 0.6465 -0.6897 -0.3260
vn -0.1961 0.9055 0.3762
vn 0.2423 -0.8942 -0.3765
vn 0.4528 0.8132 0.3655
vn -0.9673 -0.1521 -0.2031
vn -0.3987 -0.8557 -0.3297
vn 0.9711 0.1079 0.2126
vn -0.5639 0.8162 -0.1253
vn 0.5578 -0.8209 0.1229
vn 0.3994 0.9155 -0.0485
vn -0.3789 -0.9250 0.0292
vn 0.9021 0.4314 -0.0115
vn -0.8971 -0.4419 0.0007
vn 0.9879 0.0838 -0.1301
vn -0.9867 -0.0812 0.1411
vn -0.9680 -0.0054 0.2507
vn 0.9679 -0.0155 -0.2510
usemtl Wire4A
s 1
f 432//408 439//409 431//410
f 433//411 440//412 432//408
f 444//413 435//414 436//415
f 445//416 436//415 437//417
f 440//412 447//418 439//409
f 449//419 440//412 441//420
f 452//421 443//422 444//413
f 453//423 444//413 445//416
f 456//424 447//418 448//425
f 457//426 448//425 449//419
f 460//427 451//428 452//421
f 453//423 460//427 452//421
f 464//429 455//430 456//424
f 465//431 456//424 457//426
f 460//427 467//432 459//433
f 461//434 468//435 460//427
f 472//436 463//437 464//429
f 473//438 464//429 465//431
f 468//435 475//439 467//432
f 469//440 476//441 468//435
f 480//442 471//443 472//436
f 481//444 472//436 473//438
f 476//441 483//445 475//439
f 477//446 484//447 476//441
f 488//448 479//449 480//442
f 489//450 480//442 481//444
f 484//447 491//451 483//445
f 485//452 492//453 484//447
f 496//454 487//455 488//448
f 497//456 488//448 489//450
f 492//453 499//457 491//451
f 501//458 492//453 493//459
f 504//460 495//461 496//454
f 505//462 496//454 497//456
f 508//463 499//457 500//464
f 509//465 500//464 501//458
f 512//466 503//467 504//460
f 513//468 504//460 505//462
f 516//469 507//470 508//463
f 517//471 508//463 509//465
f 520//472 511//473 512//466
f 521//474 512//466 513//468
f 524//475 515//476 516//469
f 525//477 516//469 517//471
f 528//478 519//479 520//472
f 529//480 520//472 521//474
f 524//475 531//481 523//482
f 525//477 532//483 524//475
f 432//408 440//412 439//409
f 433//411 441//420 440//412
f 444//413 443//422 435//414
f 445//416 444//413 436//415
f 440//412 448//425 447//418
f 449//419 448//425 440//412
f 452//421 451//428 443//422
f 453//423 452//421 444//413
f 456//424 455//430 447//418
f 457//426 456//424 448//425
f 460//427 459//433 451//428
f 453//423 461//434 460//427
f 464//429 463//437 455//430
f 465//431 464//429 456//424
f 460//427 468//435 467//432
f 461//434 469//440 468//435
f 472//436 471//443 463//437
f 473//438 472//436 464//429
f 468//435 476//441 475//439
f 469//440 477//446 476//441
f 480//442 479//449 471//443
f 481//444 480//442 472//436
f 476//441 484//447 483//445
f 477//446 485//452 484//447
f 488//448 487//455 479//449
f 489//450 488//448 480//442
f 484//447 492//453 491//451
f 485//452 493//459 492//453
f 496//454 495//461 487//455
f 497//456 496//454 488//448
f 492//453 500//464 499//457
f 501//458 500//464 492//453
f 504//460 503//467 495//461
f 505//462 504//460 496//454
f 508//463 507//470 499//457
f 509//465 508//463 500//464
f 512//466 511//473 503//467
f 513//468 512//466 504//460
f 516//469 515//476 507//470
f 517//471 516//469 508//463
f 520//472 519//479 511//473
f 521//474 520//472 512//466
f 524//475 523//482 515//476
f 525//477 524//475 516//469
f 528//478 527//484 519//479
f 529//480 528//478 520//472
f 524//475 532//483 531//481
f 525//477 533//485 532//483
usemtl Wire4B
f 430//486 445//416 437//417
f 431//410 438//487 430//486
f 442//488 433//411 434//489
f 443//422 434//489 435//414
f 438//487 453//423 445//416
f 439//409 446//490 438//487
f 450//491 441//420 442//488
f 451//428 442//488 443//422
f 446//490 461//434 453//423
f 447//418 454//492 446//490
f 458//493 449//419 450//491
f 459//433 450//491 451//428
f 454//492 469//440 461//434
f 463//437 454//492 455//430
f 466//494 457//426 458//493
f 467//432 458//493 459//433
f 462//495 477//446 469//440
f 471//443 462//495 463//437
f 474//496 465//431 466//494
f 475//439 466//494 467//432
f 470//497 485//452 477//446
f 479//449 470//497 471//443
f 482//498 473//438 474//496
f 483//445 474//496 475//439
f 486//499 485//452 478//500
f 487//455 478//500 479//449
f 490//501 481//444 482//498
f 483//445 490//501 482//498
f 494//502 493//459 486//499
f 495//461 486//499 487//455
f 498//503 489//450 490//501
f 499//457 490//501 491//451
f 502//504 501//458 494//502
f 503//467 494//502 495//461
f 506//505 497//456 498//503
f 507//470 498//503 499//457
f 510//506 509//465 502//504
f 511//473 502//504 503//467
f 514//507 505//462 506//505
f 515//476 506//505 507//470
f 518//508 517//471 510//506
f 519//479 510//506 511//473
f 522//509 513//468 514//507
f 523//482 514//507 515//476
f 518//508 533//485 525//477
f 527//484 518//508 519//479
f 530//510 521//474 522//509
f 523//482 530//510 522//509
f 430//486 438//487 445//416
f 431//410 439//409 438//487
f 442//488 441//420 433//411
f 443//422 442//488 434//489
f 438//487 446//490 453//423
f 439//409 447//418 446//490
f 450//491 449//419 441//420
f 451//428 450//491 442//488
f 446//490 454//492 461//434
f 447//418 455//430 454//492
f 458//493 457//426 449//419
f 459//433 458//493 450//491
f 454//492 462//495 469//440
f 463//437 462//495 454//492
f 466//494 465//431 457//426
f 467//432 466//494 458//493
f 462//495 470//497 477//446
f 471//443 470//497 462//495
f 474//496 473//438 465//431
f 475//439 474//496 466//494
f 470//497 478//500 485//452
f 479//449 478//500 470//497
f 482//498 481//444 473//438
f 483//445 482//498 474//496
f 486//499 493//459 485//452
f 487//455 486//499 478//500
f 490//501 489//450 481//444
f 483//445 491//451 490//501
f 494//502 501//458 493//459
f 495//461 494//502 486//499
f 498//503 497//456 489//450
f 499//457 498//503 490//501
f 502//504 509//465 501//458
f 503//467 502//504 494//502
f 506//505 505//462 497//456
f 507//470 506//505 498//503
f 510//506 517//471 509//465
f 511//473 510//506 502//504
f 514//507 513//468 505//462
f 515//476 514//507 506//505
f 518//508 525//477 517//471
f 519//479 518//508 510//506
f 522//509 521//474 513//468
f 523//482 522//509 514//507
f 518//508 526//511 533//485
f 527//484 526//511 518//508
f 530//510 529//480 521//474
f 523//482 531//481 530//510
o Cube.001_Cube.002
v 0.350000 -0.186356 -0.441510
v 0.350000 -0.026082 -0.441510
v -0.500000 -0.186356 -0.441510
v -0.500000 -0.026082 -0.441510
v 0.350000 -0.026082 -0.360985
v 0.350000 -0.186356 -0.360985
v -0.500000 -0.186356 -0.360985
v -0.500000 -0.026082 -0.360985
vn 0.0000 1.0000 0.0000
vn 0.0000 0.0000 -1.0000
vn 0.0000 0.0000 1.0000
vn 1.0000 0.0000 -0.0000
vn -1.0000 0.0000 0.0000
vn 0.0000 -1.0000 0.0000
usemtl Base
s off
f 537//512 538//512 535//512
f 535//513 536//513 537//513
f 538//514 540//514 539//514
f 535//515 539//515 534//515
f 536//516 541//516 537//516
f 534//517 540//517 536//517
f 537//512 541//512 538//512
f 535//513 534//513 536//513
f 538//514 541//514 540//514
f 535//515 538//515 539//515
f 536//516 540//516 541//516
f 534//517 539//517 540//517
o LED2_Cube.000
v -0.330000 -0.031000 -0.385000
v -0.330000 -0.021000 -0.385000
v -0.330000 -0.031000 -0.415000
v -0.330000 -0.021000 -0.415000
v -0.270000 -0.031000 -0.385000
v -0.270000 -0.021000 -0.385000
v -0.270000 -0.031000 -0.415000
v -0.270000 -0.021000 -0.415000
vn -1.0000 0.0000 0.0000
vn 0.0000 0.0000 -1.0000
vn 1.0000 0.0000 0.0000
vn 0.0000 0.0000 1.0000
vn 0.0000 -1.0000 0.0000
vn 0.0000 1.0000 0.0000
usemtl LED2
s off
f 543//518 544//518 542//518
f 545//519 548//519 544//519
f 549//520 546//520 548//520
f 547//521 542//521 546//521
f 548//522 542//522 544//522
f 545//523 547//523 549//523
f 543//518 545//518 544//518
f 545//519 549//519 548//519
f 549//520 547//520 546//520
f 547//521 543//521 542//521
f 548//522 546//522 542//522
f 545//523 543//523 547//523
o LED3_Cube.004
v -0.180000 -0.031000 -0.385000
v -0.180000 -0.021000 -0.385000
v -0.180000 -0.031000 -0.415000
v -0.180000 -0.021000 -0.415000
v -0.120000 -0.031000 -0.385000
v -0.120000 -0.021000 -0.385000
v -0.120000 -0.031000 -0.415000
v -0.120000 -0.021000 -0.415000
vn -1.0000 0.0000 0.0000
vn 0.0000 0.0000 -1.0000
vn 1.0000 0.0000 0.0000
vn 0.0000 0.0000 1.0000
vn 0.0000 -1.0000 0.0000
vn 0.0000 1.0000 0.0000
usemtl LED3
s off
f 551//524 552//524 550//524
f 553//525 556//525 552//525
f 557//526 554//526 556//526
f 555//527 550//527 554//527
f 556//528 550//528 552//528
f 553//529 555//529 557//529
f 551//524 553//524 552//524
f 553//525 557//525 556//525
f 557//526 555//526 554//526
f 555//527 551//527 550//527
f 556//528 554//528 550//528
f 553//529 551//529 555//529
o LED4_Cube.005
v -0.030000 -0.031000 -0.385000
v -0.030000 -0.021000 -0.385000
v -0.030000 -0.031000 -0.415000
v -0.030000 -0.021000 -0.415000
v 0.030000 -0.031000 -0.385000
v 0.030000 -0.021000 -0.385000
v 0.030000 -0.031000 -0.415000
v 0.030000 -0.021000 -0.415000
vn -1.0000 0.0000 0.0000
vn 0.0000 0.0000 -1.0000
vn 1.0000 0.0000 0.0000
vn 0.0000 0.0000 1.0000
vn 0.0000 -1.0000 0.0000
vn 0.0000 1.0000 0.0000
usemtl LED4
s off
f 559//530 560//530 558//530
f 561//531 564//531 560//531
f 565//532 562//532 564//532
f 563//533 558//533 562//533
f 564//534 558//534 560//534
f 561//535 563//535 565//535
f 559//530 561//530 560//530
f 561//531 565//531 564//531
f 565//532 563//532 562//532
f 563//533 559//533 558//533
f 564//534 562//534 558//534
f 561//535 559//535 563//535
o LED5_Cube.006
v 0.120000 -0.031000 -0.385000
v 0.120000 -0.021000 -0.385000
v 0.120000 -0.031000 -0.415000
v 0.120000 -0.021000 -0.415000
v 0.180000 -0.031000 -0.385000
v 0.180000 -0.021000 -0.385000
v 0.180000 -0.031000 -0.415000
v 0.180000 -0.021000 -0.415000
vn -1.0000 0.0000 0.0000
vn 0.0000 0.0000 -1.0000
vn 1.0000 0.0000 0.0000
vn 0.0000 0.0000 1.0000
vn 0.0000 -1.0000 0.0000
vn 0.0000 1.0000 0.0000
usemtl LED5
s off
f 567//536 568//536 566//536
f 569//537 572//537 568//537
f 573//538 570//538 572//538
f 571//539 566//539 570//539
f 572//540 566//540 568//540
f 569//541 571//541 573//541
f 567//536 569//536 568//536
f 569//537 573//537 572//537
f 573//538 571//538 570//538
f 571//539 567//539 566//539
f 572//540 570//540 566//540
f 569//541 567//541 571//541
o LED6_Cube.007
v 0.270000 -0.031000 -0.385000
v 0.270000 -0.021000 -0.385000
v 0.270000 -0.031000 -0.415000
v 0.270000 -0.021000 -0.415000
v 0.330000 -0.031000 -0.385000
v 0.330000 -0.021000 -0.385000
v 0.330000 -0.031000 -0.415000
v 0.330000 -0.021000 -0.415000
vn -1.0000 0.0000 0.0000
vn 0.0000 0.0000 -1.0000
vn 1.0000 0.0000 0.0000
vn 0.0000 0.0000 1.0000
vn 0.0000 -1.0000 0.0000
vn 0.0000 1.0000 0.0000
usemtl LED6
s off
f 575//542 576//542 574//542
f 577//543 580//543 576//543
f 581//544 578//544 580//544
f 579//545 574//545 578//545
f 580//546 574//546 576//546
f 577//547 579//547 581//547
f 575//542 577//542 576//542
f 577//543 581//543 580//543
f 581//544 579//544 578//544
f 579//545 575//545 574//545
f 580//546 578//546 574//546
f 577//547 575//547 579//547
o X2_x2
v -0.324750 -0.027869 0.434346
v -0.300001 -0.051544 0.465201
v -0.292930 -0.047240 0.459591
v -0.300001 -0.042935 0.453981
v -0.307072 -0.047240 0.459591
v -0.299999 -0.047251 0.459605
v -0.331821 -0.062306 0.479225
v -0.324750 -0.066611 0.484835
v -0.331821 -0.032174 0.439956
v -0.268181 -0.032174 0.439956
v -0.275252 -0.027869 0.434346
v -0.275145 -0.066676 0.484920
v -0.268289 -0.062241 0.479140
v -0.299999 -0.039318 0.465693
v -0.300001 -0.035002 0.460068
v -0.324750 -0.019936 0.440434
v -0.331821 -0.024240 0.446044
v -0.307072 -0.039306 0.465678
v -0.268289 -0.054307 0.485228
v -0.292930 -0.039306 0.465678
v -0.299999 -0.039318 0.465693
v -0.300001 -0.043611 0.471288
v -0.275145 -0.058742 0.491008
v -0.300001 -0.043611 0.471288
v -0.299999 -0.039318 0.465693
v -0.307072 -0.039306 0.465678
v -0.331821 -0.054372 0.485313
v -0.324750 -0.058677 0.490923
v -0.292930 -0.039306 0.465678
v -0.268181 -0.024240 0.446044
v -0.275252 -0.019936 0.440434
v -0.300001 -0.035002 0.460068
v -0.299999 -0.039318 0.465693
vn -0.0000 0.7934 0.6088
vn 1.0000 0.0002 -0.0002
vn 0.7071 0.4305 -0.5610
vn -0.7071 0.4305 -0.5610
vn -0.7071 -0.4305 0.5610
vn -0.0026 -0.6088 0.7934
vn -0.0026 0.6088 -0.7934
vn -1.0000 0.0002 -0.0002
vn 0.7282 -0.4172 0.5437
vn 1.0000 -0.0002 0.0002
vn 0.0026 0.6088 -0.7934
vn 0.7071 -0.4305 0.5610
vn -1.0000 -0.0002 0.0002
vn 0.0026 -0.6088 0.7934
vn -0.0026 0.6088 -0.7933
vn 0.0026 0.6088 -0.7933
vn 0.0026 -0.6088 0.7933
usemtl X2
s off
f 597//548 598//548 599//548
f 585//549 595//549 587//549
f 597//550 585//550 582//550
f 598//551 582//551 590//551
f 586//552 598//552 590//552
f 595//553 586//553 587//553
f 601//548 603//548 600//548
f 601//550 594//550 584//550
f 602//554 584//554 587//554
f 603//555 587//555 583//555
f 593//552 603//552 583//552
f 600//556 593//556 594//556
f 607//548 608//548 605//548
f 587//557 605//557 583//557
f 586//558 606//558 587//558
f 608//551 586//551 588//551
f 589//552 608//552 588//552
f 605//559 589//559 583//559
f 611//548 613//548 610//548
f 611//559 584//559 591//559
f 612//550 591//550 592//550
f 613//551 592//551 585//551
f 614//560 585//560 587//560
f 584//561 614//561 587//561
f 599//548 595//548 596//548
f 596//548 597//548 599//548
f 585//549 596//549 595//549
f 597//550 596//550 585//550
f 598//551 597//551 582//551
f 586//552 599//552 598//552
f 595//553 599//553 586//553
f 604//548 600//548 603//548
f 601//548 602//548 603//548
f 601//550 600//550 594//550
f 602//562 601//562 584//562
f 603//555 602//555 587//555
f 593//552 604//552 603//552
f 600//556 604//556 593//556
f 609//548 605//548 608//548
f 606//548 607//548 605//548
f 587//557 606//557 605//557
f 586//563 607//563 606//563
f 608//551 607//551 586//551
f 589//552 609//552 608//552
f 605//559 609//559 589//559
f 614//548 610//548 613//548
f 611//548 612//548 613//548
f 611//559 610//559 584//559
f 612//550 611//550 591//550
f 613//551 612//551 592//551
f 614//560 613//560 585//560
f 584//564 610//564 614//564
o X3_x3
v -0.174750 -0.027869 0.434346
v -0.150001 -0.051544 0.465201
v -0.142930 -0.047240 0.459591
v -0.150001 -0.042935 0.453981
v -0.157072 -0.047240 0.459591
v -0.149999 -0.047251 0.459605
v -0.181821 -0.062306 0.479225
v -0.174750 -0.066611 0.484835
v -0.181821 -0.032174 0.439956
v -0.118181 -0.032174 0.439956
v -0.125252 -0.027869 0.434346
v -0.125145 -0.066676 0.484920
v -0.118289 -0.062241 0.479140
v -0.149999 -0.039318 0.465693
v -0.150001 -0.035002 0.460068
v -0.174750 -0.019936 0.440434
v -0.181821 -0.024240 0.446044
v -0.157072 -0.039306 0.465678
v -0.118289 -0.054307 0.485228
v -0.142930 -0.039306 0.465678
v -0.149999 -0.039318 0.465693
v -0.150001 -0.043611 0.471288
v -0.125145 -0.058742 0.491008
v -0.150001 -0.043611 0.471288
v -0.149999 -0.039318 0.465693
v -0.157072 -0.039306 0.465678
v -0.181821 -0.054372 0.485313
v -0.174750 -0.058677 0.490923
v -0.142930 -0.039306 0.465678
v -0.118181 -0.024240 0.446044
v -0.125252 -0.019936 0.440434
v -0.150001 -0.035002 0.460068
v -0.149999 -0.039318 0.465693
vn 0.0000 0.7934 0.6088
vn 1.0000 0.0002 -0.0002
vn 0.7071 0.4305 -0.5610
vn -0.7071 0.4305 -0.5610
vn -0.7071 -0.4305 0.5610
vn -0.0026 -0.6088 0.7934
vn -0.0026 0.6088 -0.7934
vn -1.0000 0.0002 -0.0002
vn 0.7282 -0.4172 0.5437
vn 1.0000 -0.0002 0.0002
vn 0.0026 0.6088 -0.7934
vn 0.7071 -0.4305 0.5610
vn -1.0000 -0.0002 0.0002
vn 0.0026 -0.6088 0.7934
vn -0.0026 -0.6088 0.7933
vn 0.0026 0.6088 -0.7933
usemtl X3
s off
f 629//565 631//565 632//565
f 618//566 628//566 620//566
f 615//567 629//567 618//567
f 631//568 615//568 623//568
f 619//569 631//569 623//569
f 628//570 619//570 620//570
f 634//565 636//565 633//565
f 634//567 627//567 617//567
f 635//571 617//571 620//571
f 636//572 620//572 616//572
f 626//569 636//569 616//569
f 633//573 626//573 627//573
f 640//565 641//565 638//565
f 620//574 638//574 616//574
f 619//575 639//575 620//575
f 641//568 619//568 621//568
f 642//569 621//569 622//569
f 638//576 622//576 616//576
f 644//565 646//565 643//565
f 644//576 617//576 624//576
f 645//567 624//567 625//567
f 618//568 645//568 625//568
f 647//577 618//577 620//577
f 617//578 647//578 620//578
f 632//565 628//565 629//565
f 629//565 630//565 631//565
f 618//566 629//566 628//566
f 615//567 630//567 629//567
f 631//568 630//568 615//568
f 619//569 632//569 631//569
f 628//579 632//579 619//579
f 637//565 633//565 636//565
f 634//565 635//565 636//565
f 634//567 633//567 627//567
f 635//571 634//571 617//571
f 636//572 635//572 620//572
f 626//569 637//569 636//569
f 633//573 637//573 626//573
f 642//565 638//565 641//565
f 639//565 640//565 638//565
f 620//574 639//574 638//574
f 619//580 640//580 639//580
f 641//568 640//568 619//568
f 642//569 641//569 621//569
f 638//576 642//576 622//576
f 647//565 643//565 646//565
f 644//565 645//565 646//565
f 644//576 643//576 617//576
f 645//567 644//567 624//567
f 618//568 646//568 645//568
f 647//577 646//577 618//577
f 617//578 643//578 647//578
o X4_x4
v -0.024750 -0.027869 0.434346
v -0.000001 -0.051544 0.465201
v 0.007070 -0.047240 0.459591
v -0.000001 -0.042935 0.453981
v -0.007072 -0.047240 0.459591
v 0.000001 -0.047251 0.459605
v -0.031821 -0.062306 0.479225
v -0.024750 -0.066611 0.484835
v -0.031821 -0.032174 0.439956
v 0.031819 -0.032174 0.439956
v 0.024748 -0.027869 0.434346
v 0.024855 -0.066676 0.484920
v 0.031711 -0.062241 0.479140
v 0.000001 -0.039318 0.465693
v -0.000001 -0.035002 0.460068
v -0.024750 -0.019936 0.440434
v -0.031821 -0.024240 0.446044
v -0.007072 -0.039306 0.465678
v 0.031711 -0.054307 0.485228
v 0.007070 -0.039306 0.465678
v 0.000001 -0.039318 0.465693
v -0.000001 -0.043611 0.471288
v 0.024855 -0.058742 0.491008
v -0.000001 -0.043611 0.471288
v 0.000001 -0.039318 0.465693
v -0.007072 -0.039306 0.465678
v -0.031821 -0.054372 0.485313
v -0.024750 -0.058677 0.490923
v 0.007070 -0.039306 0.465678
v 0.031819 -0.024240 0.446044
v 0.024748 -0.019936 0.440434
v -0.000001 -0.035002 0.460068
v 0.000001 -0.039318 0.465693
vn 0.0000 0.7934 0.6088
vn 1.0000 0.0002 -0.0002
vn 0.7071 0.4305 -0.5610
vn -0.7071 0.4305 -0.5610
vn -0.7071 -0.4305 0.5610
vn -0.0026 -0.6088 0.7934
vn -0.0026 0.6088 -0.7934
vn -1.0000 0.0002 -0.0002
vn 0.7282 -0.4172 0.5437
vn 1.0000 -0.0002 0.0002
vn 0.0026 0.6088 -0.7934
vn 0.7071 -0.4305 0.5610
vn -1.0000 -0.0002 0.0002
vn 0.0026 -0.6088 0.7933
vn -0.0026 0.6088 -0.7933
vn 0.0026 -0.6088 0.7934
usemtl X4
s off
f 662//581 664//581 665//581
f 651//582 661//582 653//582
f 663//583 651//583 648//583
f 656//584 663//584 648//584
f 652//585 664//585 656//585
f 661//586 652//586 653//586
f 667//581 669//581 666//581
f 667//583 660//583 650//583
f 668//587 650//587 653//587
f 669//588 653//588 649//588
f 659//585 669//585 649//585
f 666//589 659//589 660//589
f 673//581 674//581 671//581
f 653//590 671//590 649//590
f 652//591 672//591 653//591
f 654//584 673//584 652//584
f 675//585 654//585 655//585
f 671//592 655//592 649//592
f 677//581 679//581 676//581
f 677//592 650//592 657//592
f 678//583 657//583 658//583
f 651//584 678//584 658//584
f 680//593 651//593 653//593
f 676//594 653//594 650//594
f 665//581 661//581 662//581
f 662//581 663//581 664//581
f 651//582 662//582 661//582
f 663//583 662//583 651//583
f 656//584 664//584 663//584
f 652//585 665//585 664//585
f 661//586 665//586 652//586
f 670//581 666//581 669//581
f 667//581 668//581 669//581
f 667//583 666//583 660//583
f 668//595 667//595 650//595
f 669//588 668//588 653//588
f 659//585 670//585 669//585
f 666//589 670//589 659//589
f 675//581 671//581 674//581
f 672//581 673//581 671//581
f 653//590 672//590 671//590
f 652//591 673//591 672//591
f 654//584 674//584 673//584
f 675//585 674//585 654//585
f 671//592 675//592 655//592
f 680//581 676//581 679//581
f 677//581 678//581 679//581
f 677//592 676//592 650//592
f 678//583 677//583 657//583
f 651//584 679//584 678//584
f 680//593 679//593 651//593
f 676//596 680//596 653//596
o X5_x5
v 0.125250 -0.027869 0.434346
v 0.149999 -0.051544 0.465201
v 0.157070 -0.047240 0.459591
v 0.149999 -0.042935 0.453981
v 0.142928 -0.047240 0.459591
v 0.150001 -0.047251 0.459605
v 0.118179 -0.062306 0.479225
v 0.125250 -0.066611 0.484835
v 0.118179 -0.032174 0.439956
v 0.181819 -0.032174 0.439956
v 0.174748 -0.027869 0.434346
v 0.174855 -0.066676 0.484920
v 0.181711 -0.062241 0.479140
v 0.150001 -0.039318 0.465693
v 0.149999 -0.035002 0.460068
v 0.125250 -0.019936 0.440434
v 0.118179 -0.024240 0.446044
v 0.142928 -0.039306 0.465678
v 0.181711 -0.054307 0.485228
v 0.157070 -0.039306 0.465678
v 0.150001 -0.039318 0.465693
v 0.149999 -0.043611 0.471288
v 0.174855 -0.058742 0.491008
v 0.149999 -0.043611 0.471288
v 0.150001 -0.039318 0.465693
v 0.142928 -0.039306 0.465678
v 0.118179 -0.054372 0.485313
v 0.125250 -0.058677 0.490923
v 0.157070 -0.039306 0.465678
v 0.181819 -0.024240 0.446044
v 0.174748 -0.019936 0.440434
v 0.149999 -0.035002 0.460068
v 0.150001 -0.039318 0.465693
vn -0.0000 0.7934 0.6088
vn 1.0000 0.0002 -0.0002
vn 0.7071 0.4305 -0.5610
vn -0.7071 0.4305 -0.5610
vn -0.7071 -0.4305 0.5610
vn -0.0026 -0.6088 0.7934
vn -0.0026 0.6088 -0.7934
vn -1.0000 0.0002 -0.0002
vn 0.7282 -0.4172 0.5437
vn 1.0000 -0.0002 0.0002
vn 0.0026 0.6088 -0.7934
vn 0.7071 -0.4305 0.5610
vn -1.0000 -0.0002 0.0002
vn 0.0026 -0.6088 0.7934
usemtl X5
s off
f 696//597 697//597 698//597
f 684//598 694//598 686//598
f 696//599 684//599 681//599
f 689//600 696//600 681//600
f 698//601 689//601 685//601
f 694//602 685//602 686//602
f 700//597 702//597 699//597
f 700//599 693//599 683//599
f 701//603 683//603 686//603
f 702//604 686//604 682//604
f 692//601 702//601 682//601
f 699//605 692//605 693//605
f 706//597 707//597 704//597
f 686//606 704//606 682//606
f 685//607 705//607 686//607
f 687//600 706//600 685//600
f 708//601 687//601 688//601
f 682//608 708//608 688//608
f 710//597 712//597 709//597
f 710//608 683//608 690//608
f 711//599 690//599 691//599
f 684//600 711//600 691//600
f 713//609 684//609 686//609
f 683//610 713//610 686//610
f 698//597 694//597 695//597
f 695//597 696//597 698//597
f 684//598 695//598 694//598
f 696//599 695//599 684//599
f 689//600 697//600 696//600
f 698//601 697//601 689//601
f 694//602 698//602 685//602
f 703//597 699//597 702//597
f 700//597 701//597 702//597
f 700//599 699//599 693//599
f 701//603 700//603 683//603
f 702//604 701//604 686//604
f 692//601 703//601 702//601
f 699//605 703//605 692//605
f 708//597 704//597 707//597
f 705//597 706//597 704//597
f 686//606 705//606 704//606
f 685//607 706//607 705//607
f 687//600 707//600 706//600
f 708//601 707//601 687//601
f 682//608 704//608 708//608
f 713//597 709//597 712//597
f 710//597 711//597 712//597
f 710//608 709//608 683//608
f 711//599 710//599 690//599
f 684//600 712//600 711//600
f 713//609 712//609 684//609
f 683//610 709//610 713//610
o X6_x6
v 0.275250 -0.027869 0.434346
v 0.299999 -0.051544 0.465201
v 0.307070 -0.047240 0.459591
v 0.299999 -0.042935 0.453981
v 0.292928 -0.047240 0.459591
v 0.300001 -0.047251 0.459605
v 0.268179 -0.062306 0.479225
v 0.275250 -0.066611 0.484835
v 0.268179 -0.032174 0.439956
v 0.331819 -0.032174 0.439956
v 0.324748 -0.027869 0.434346
v 0.324855 -0.066676 0.484920
v 0.331711 -0.062241 0.479140
v 0.300001 -0.039318 0.465693
v 0.299999 -0.035002 0.460068
v 0.275250 -0.019936 0.440434
v 0.268179 -0.024240 0.446044
v 0.292928 -0.039306 0.465678
v 0.331711 -0.054307 0.485228
v 0.307070 -0.039306 0.465678
v 0.300001 -0.039318 0.465693
v 0.299999 -0.043611 0.471288
v 0.324855 -0.058742 0.491008
v 0.299999 -0.043611 0.471288
v 0.300001 -0.039318 0.465693
v 0.292928 -0.039306 0.465678
v 0.268179 -0.054372 0.485313
v 0.275250 -0.058677 0.490923
v 0.307070 -0.039306 0.465678
v 0.331819 -0.024240 0.446044
v 0.324748 -0.019936 0.440434
v 0.299999 -0.035002 0.460068
v 0.300001 -0.039318 0.465693
vn 0.0000 0.7934 0.6088
vn 1.0000 0.0002 -0.0002
vn 0.7071 0.4305 -0.5610
vn -0.7071 0.4305 -0.5610
vn -0.7071 -0.4305 0.5610
vn -0.0026 -0.6088 0.7934
vn -0.0026 0.6088 -0.7934
vn -1.0000 0.0002 -0.0002
vn 0.7282 -0.4172 0.5437
vn 1.0000 -0.0002 0.0002
vn 0.0026 0.6088 -0.7934
vn 0.7071 -0.4305 0.5610
vn -1.0000 -0.0002 0.0002
vn 0.0026 -0.6088 0.7934
vn -0.0026 0.6088 -0.7933
vn 0.0026 0.6088 -0.7933
vn 0.0026 -0.6088 0.7933
usemtl X6
s off
f 728//611 730//611 731//611
f 717//612 727//612 719//612
f 729//613 717//613 714//613
f 722//614 729//614 714//614
f 731//615 722//615 718//615
f 727//616 718//616 719//616
f 733//611 735//611 732//611
f 716//613 732//613 726//613
f 734//617 716//617 719//617
f 735//618 719//618 715//618
f 736//615 715//615 725//615
f 732//619 725//619 726//619
f 739//611 740//611 737//611
f 719//620 737//620 715//620
f 718//621 738//621 719//621
f 720//614 739//614 718//614
f 741//615 720//615 721//615
f 715//622 741//622 721//622
f 743//611 745//611 742//611
f 743//622 716//622 723//622
f 744//613 723//613 724//613
f 717//614 744//614 724//614
f 746//623 717//623 719//623
f 716//624 746//624 719//624
f 731//611 727//611 728//611
f 728//611 729//611 730//611
f 717//612 728//612 727//612
f 729//613 728//613 717//613
f 722//614 730//614 729//614
f 731//615 730//615 722//615
f 727//616 731//616 718//616
f 736//611 732//611 735//611
f 733//611 734//611 735//611
f 716//613 733//613 732//613
f 734//625 733//625 716//625
f 735//618 734//618 719//618
f 736//615 735//615 715//615
f 732//619 736//619 725//619
f 741//611 737//611 740//611
f 738//611 739//611 737//611
f 719//620 738//620 737//620
f 718//626 739//626 738//626
f 720//614 740//614 739//614
f 741//615 740//615 720//615
f 715//622 737//622 741//622
f 746//611 742//611 745//611
f 743//611 744//611 745//611
f 743//622 742//622 716//622
f 744//613 743//613 723//613
f 717//614 745//614 744//614
f 746//623 745//623 717//623
f 716//627 742//627 746//627
