# Blender MTL File: 'wire.blend'
# Material Count: 10

newmtl Flex
Ns 96.078431
Ka 1.000000 1.000000 1.000000
Kd 0.480000 0.480000 0.400000
Ks 0.500000 0.500000 0.500000
Ke 0.000000 0.000000 0.000000
Ni 1.000000
d 1.000000
illum 2

newmtl Metal
Ns 37.254902
Ka 1.000000 1.000000 1.000000
Kd 0.540000 0.540000 0.450000
Ks 0.600000 0.600000 0.600000
Ke 0.000000 0.000000 0.000000
Ni 1.000000
d 1.000000
illum 2

newmtl Plastic
Ns 66.666667
Ka 0.150000 0.150000 0.150000
Kd 0.054505 0.054505 0.054505
Ks 0.900000 0.900000 0.900000
Ke 0.000000 0.000000 0.000000
Ni 1.000000
d 1.000000
illum 2

newmtl Plate
Ns 17.647059
Ka 1.000000 1.000000 1.000000
Kd 0.196961 0.196961 0.196961
Ks 0.200000 0.200000 0.200000
Ke 0.000000 0.000000 0.000000
Ni 1.000000
d 1.000000
illum 2

newmtl Wire1
Ns 96.078431
Ka 1.000000 1.000000 1.000000
Kd 0.362296 0.000000 0.000000
Ks 0.600000 0.600000 0.600000
Ke 0.000000 0.000000 0.000000
Ni 1.000000
d 1.000000
illum 2

newmtl Wire2
Ns 96.078431
Ka 1.000000 1.000000 1.000000
Kd 0.000000 0.196961 0.000000
Ks 0.500000 0.500000 0.500000
Ke 0.000000 0.000000 0.000000
Ni 1.000000
d 1.000000
illum 2

newmtl Wire3
Ns 96.078431
Ka 1.000000 1.000000 1.000000
Kd 0.900000 0.900000 0.900000
Ks 0.500000 0.500000 0.500000
Ke 0.000000 0.000000 0.000000
Ni 1.000000
d 1.000000
illum 2

newmtl Wire4
Ns 96.078431
Ka 1.000000 1.000000 1.000000
Kd 0.014396 0.014397 0.900000
Ks 0.500000 0.500000 0.500000
Ke 0.000000 0.000000 0.000000
Ni 1.000000
d 1.000000
illum 2

newmtl Wire5
Ns 96.078431
Ka 1.000000 1.000000 1.000000
Kd 0.900000 0.900000 0.000000
Ks 0.500000 0.500000 0.500000
Ke 0.000000 0.000000 0.000000
Ni 1.000000
d 1.000000
illum 2

newmtl Wire6
Ns 96.078431
Ka 1.000000 1.000000 1.000000
Kd 0.053444 0.053444 0.053444
Ks 0.500000 0.500000 0.500000
Ke 0.000000 0.000000 0.000000
Ni 1.000000
d 1.000000
illum 2
