# Blender v2.78 (sub 0) OBJ File: 'memory.blend'
# www.blender.org
mtllib memory_button.mtl
o Cube.001_Cube
v -0.090000 -0.100000 0.135000
v -0.090000 -0.095000 0.150000
v -0.100000 -0.095000 0.135000
v -0.090000 -0.099332 0.142490
v -0.094993 -0.099332 0.135000
v -0.094782 -0.098683 0.142173
v -0.094993 -0.095000 0.147996
v -0.090000 -0.097497 0.147996
v -0.094782 -0.097391 0.146049
v -0.098664 -0.097497 0.135000
v -0.098664 -0.095000 0.142490
v -0.097366 -0.097391 0.142173
v -0.090000 -0.005000 0.150000
v -0.090000 -0.000000 0.135000
v -0.100000 -0.005000 0.135000
v -0.090000 -0.002503 0.147996
v -0.094993 -0.005000 0.147996
v -0.094782 -0.002609 0.146049
v -0.094993 -0.000668 0.135000
v -0.090000 -0.000668 0.142490
v -0.094782 -0.001317 0.142173
v -0.098664 -0.005000 0.142490
v -0.098664 -0.002503 0.135000
v -0.097366 -0.002609 0.142173
v -0.090000 -0.100000 -0.135000
v -0.100000 -0.095000 -0.135000
v -0.090000 -0.095000 -0.150000
v -0.094993 -0.099332 -0.135000
v -0.090000 -0.099332 -0.142490
v -0.094782 -0.098683 -0.142173
v -0.098664 -0.095000 -0.142490
v -0.098664 -0.097497 -0.135000
v -0.097366 -0.097391 -0.142173
v -0.090000 -0.097497 -0.147996
v -0.094993 -0.095000 -0.147996
v -0.094782 -0.097391 -0.146049
v -0.090000 -0.000000 -0.135000
v -0.090000 -0.005000 -0.150000
v -0.100000 -0.005000 -0.135000
v -0.090000 -0.000668 -0.142490
v -0.094993 -0.000668 -0.135000
v -0.094782 -0.001317 -0.142173
v -0.094993 -0.005000 -0.147996
v -0.090000 -0.002503 -0.147996
v -0.094782 -0.002609 -0.146049
v -0.098664 -0.002503 -0.135000
v -0.098664 -0.005000 -0.142490
v -0.097366 -0.002609 -0.142173
v 0.090000 -0.100000 0.135000
v 0.100000 -0.095000 0.135000
v 0.090000 -0.095000 0.150000
v 0.094993 -0.099332 0.135000
v 0.090000 -0.099332 0.142490
v 0.094782 -0.098683 0.142173
v 0.098664 -0.095000 0.142490
v 0.098664 -0.097497 0.135000
v 0.097366 -0.097391 0.142173
v 0.090000 -0.097497 0.147996
v 0.094993 -0.095000 0.147996
v 0.094782 -0.097391 0.146049
v 0.090000 -0.000000 0.135000
v 0.090000 -0.005000 0.150000
v 0.100000 -0.005000 0.135000
v 0.090000 -0.000668 0.142490
v 0.094993 -0.000668 0.135000
v 0.094782 -0.001317 0.142173
v 0.094993 -0.005000 0.147996
v 0.090000 -0.002503 0.147996
v 0.094782 -0.002609 0.146049
v 0.098664 -0.002503 0.135000
v 0.098664 -0.005000 0.142490
v 0.097366 -0.002609 0.142173
v 0.090000 -0.100000 -0.135000
v 0.090000 -0.095000 -0.150000
v 0.100000 -0.095000 -0.135000
v 0.090000 -0.099332 -0.142490
v 0.094993 -0.099332 -0.135000
v 0.094782 -0.098683 -0.142173
v 0.094993 -0.095000 -0.147996
v 0.090000 -0.097497 -0.147996
v 0.094782 -0.097391 -0.146049
v 0.098664 -0.097497 -0.135000
v 0.098664 -0.095000 -0.142490
v 0.097366 -0.097391 -0.142173
v 0.090000 -0.000000 -0.135000
v 0.100000 -0.005000 -0.135000
v 0.090000 -0.005000 -0.150000
v 0.094993 -0.000668 -0.135000
v 0.090000 -0.000668 -0.142490
v 0.094782 -0.001317 -0.142173
v 0.098664 -0.005000 -0.142490
v 0.098664 -0.002503 -0.135000
v 0.097366 -0.002609 -0.142173
v 0.090000 -0.002503 -0.147996
v 0.094993 -0.005000 -0.147996
v 0.094782 -0.002609 -0.146049
vn 0.1762 -0.3191 0.9312
vn 0.1762 0.3191 0.9312
vn -0.1762 0.3191 0.9312
vn -0.1762 -0.3191 0.9312
vn 0.9665 -0.2420 -0.0855
vn 0.9665 0.2420 -0.0855
vn 0.9665 0.2420 0.0855
vn 0.9665 -0.2420 0.0855
vn 0.0672 0.9967 -0.0449
vn -0.0672 0.9967 -0.0449
vn -0.0672 0.9967 0.0449
vn 0.0672 0.9967 0.0449
vn -0.9665 -0.2420 0.0855
vn -0.9665 0.2420 0.0855
vn -0.9665 0.2420 -0.0855
vn -0.9665 -0.2420 -0.0855
vn -0.1762 -0.3191 -0.9312
vn -0.1762 0.3191 -0.9312
vn 0.1762 0.3191 -0.9312
vn 0.1762 -0.3191 -0.9312
vn -0.0672 -0.9967 0.0449
vn -0.0713 -0.9761 0.2053
vn -0.2901 -0.9369 0.1951
vn -0.2946 -0.9545 0.0465
vn -0.1235 -0.8025 0.5837
vn -0.4459 -0.7407 0.5026
vn -0.5875 -0.2846 0.7575
vn -0.9019 -0.2395 0.3596
vn -0.6704 -0.6909 0.2706
vn -0.7011 -0.7099 0.0667
vn -0.1235 0.8025 0.5837
vn -0.4458 0.7407 0.5026
vn -0.5875 0.2846 0.7575
vn -0.0713 0.9761 0.2053
vn -0.2901 0.9369 0.1951
vn -0.2946 0.9545 0.0465
vn -0.7011 0.7099 0.0667
vn -0.6704 0.6909 0.2706
vn -0.9019 0.2395 0.3596
vn -0.0672 -0.9967 -0.0449
vn -0.2946 -0.9545 -0.0465
vn -0.2901 -0.9369 -0.1951
vn -0.0713 -0.9761 -0.2053
vn -0.7011 -0.7099 -0.0667
vn -0.6704 -0.6909 -0.2706
vn -0.9019 -0.2395 -0.3596
vn -0.5875 -0.2846 -0.7575
vn -0.4459 -0.7407 -0.5026
vn -0.1235 -0.8025 -0.5837
vn -0.0713 0.9761 -0.2053
vn -0.2901 0.9369 -0.1951
vn -0.2946 0.9545 -0.0465
vn -0.1235 0.8025 -0.5837
vn -0.4459 0.7407 -0.5026
vn -0.5875 0.2846 -0.7575
vn -0.9019 0.2395 -0.3596
vn -0.6704 0.6909 -0.2706
vn -0.7011 0.7099 -0.0667
vn 0.0672 -0.9967 0.0449
vn 0.2946 -0.9545 0.0465
vn 0.2901 -0.9369 0.1951
vn 0.0713 -0.9761 0.2053
vn 0.7011 -0.7099 0.0667
vn 0.6704 -0.6909 0.2706
vn 0.9019 -0.2395 0.3596
vn 0.5875 -0.2846 0.7575
vn 0.4459 -0.7407 0.5026
vn 0.1235 -0.8025 0.5837
vn 0.0713 0.9761 0.2053
vn 0.2901 0.9369 0.1951
vn 0.2946 0.9545 0.0465
vn 0.1235 0.8025 0.5837
vn 0.4459 0.7407 0.5026
vn 0.5875 0.2846 0.7575
vn 0.9019 0.2395 0.3596
vn 0.6704 0.6909 0.2706
vn 0.7011 0.7099 0.0667
vn 0.0672 -0.9967 -0.0449
vn 0.0713 -0.9761 -0.2053
vn 0.2901 -0.9369 -0.1951
vn 0.2946 -0.9545 -0.0465
vn 0.1235 -0.8025 -0.5837
vn 0.4459 -0.7407 -0.5026
vn 0.5875 -0.2846 -0.7575
vn 0.9019 -0.2395 -0.3596
vn 0.6704 -0.6909 -0.2706
vn 0.7011 -0.7099 -0.0667
vn 0.2946 0.9545 -0.0465
vn 0.2901 0.9369 -0.1951
vn 0.0713 0.9761 -0.2053
vn 0.7011 0.7099 -0.0667
vn 0.6704 0.6909 -0.2706
vn 0.9019 0.2395 -0.3596
vn 0.5875 0.2846 -0.7575
vn 0.4458 0.7407 -0.5026
vn 0.1235 0.8025 -0.5837
usemtl Button
s 1
f 51//1 62//2 13//3 2//4
f 75//5 86//6 63//7 50//8
f 85//9 37//10 14//11 61//12
f 3//13 15//14 39//15 26//16
f 27//17 38//18 87//19 74//20
f 1//21 4//22 6//23 5//24
f 4//22 8//25 9//26 6//23
f 2//4 7//27 9//26 8//25
f 7//27 11//28 12//29 9//26
f 3//13 10//30 12//29 11//28
f 10//30 5//24 6//23 12//29
f 6//23 9//26 12//29
f 13//3 16//31 18//32 17//33
f 16//31 20//34 21//35 18//32
f 14//11 19//36 21//35 20//34
f 19//36 23//37 24//38 21//35
f 15//14 22//39 24//38 23//37
f 22//39 17//33 18//32 24//38
f 18//32 21//35 24//38
f 25//40 28//41 30//42 29//43
f 28//41 32//44 33//45 30//42
f 26//16 31//46 33//45 32//44
f 31//46 35//47 36//48 33//45
f 27//17 34//49 36//48 35//47
f 34//49 29//43 30//42 36//48
f 30//42 33//45 36//48
f 37//10 40//50 42//51 41//52
f 40//50 44//53 45//54 42//51
f 38//18 43//55 45//54 44//53
f 43//55 47//56 48//57 45//54
f 39//15 46//58 48//57 47//56
f 46//58 41//52 42//51 48//57
f 42//51 45//54 48//57
f 49//59 52//60 54//61 53//62
f 52//60 56//63 57//64 54//61
f 50//8 55//65 57//64 56//63
f 55//65 59//66 60//67 57//64
f 51//1 58//68 60//67 59//66
f 58//68 53//62 54//61 60//67
f 54//61 57//64 60//67
f 61//12 64//69 66//70 65//71
f 64//69 68//72 69//73 66//70
f 62//2 67//74 69//73 68//72
f 67//74 71//75 72//76 69//73
f 63//7 70//77 72//76 71//75
f 70//77 65//71 66//70 72//76
f 66//70 69//73 72//76
f 73//78 76//79 78//80 77//81
f 76//79 80//82 81//83 78//80
f 74//20 79//84 81//83 80//82
f 79//84 83//85 84//86 81//83
f 75//5 82//87 84//86 83//85
f 82//87 77//81 78//80 84//86
f 78//80 81//83 84//86
f 85//9 88//88 90//89 89//90
f 88//88 92//91 93//92 90//89
f 86//6 91//93 93//92 92//91
f 91//93 95//94 96//95 93//92
f 87//19 94//96 96//95 95//94
f 94//96 89//90 90//89 96//95
f 90//89 93//92 96//95
f 25//40 1//21 5//24 28//41
f 28//41 5//24 10//30 32//44
f 32//44 10//30 3//13 26//16
f 2//4 13//3 17//33 7//27
f 7//27 17//33 22//39 11//28
f 11//28 22//39 15//14 3//13
f 14//11 37//10 41//52 19//36
f 19//36 41//52 46//58 23//37
f 23//37 46//58 39//15 15//14
f 38//18 27//17 35//47 43//55
f 43//55 35//47 31//46 47//56
f 47//56 31//46 26//16 39//15
f 73//78 25//40 29//43 76//79
f 76//79 29//43 34//49 80//82
f 80//82 34//49 27//17 74//20
f 37//10 85//9 89//90 40//50
f 40//50 89//90 94//96 44//53
f 44//53 94//96 87//19 38//18
f 86//6 75//5 83//85 91//93
f 91//93 83//85 79//84 95//94
f 95//94 79//84 74//20 87//19
f 49//59 73//78 77//81 52//60
f 52//60 77//81 82//87 56//63
f 56//63 82//87 75//5 50//8
f 85//9 61//12 65//71 88//88
f 88//88 65//71 70//77 92//91
f 92//91 70//77 63//7 86//6
f 62//2 51//1 59//66 67//74
f 67//74 59//66 55//65 71//75
f 71//75 55//65 50//8 63//7
f 1//21 49//59 53//62 4//22
f 4//22 53//62 58//68 8//25
f 8//25 58//68 51//1 2//4
f 61//12 14//11 20//34 64//69
f 64//69 20//34 16//31 68//72
f 68//72 16//31 13//3 62//2
f 25//40 73//78 49//59 1//21
