# Blender v2.79 (sub 0) OBJ File: 'morse_code.blend'
# www.blender.org
mtllib morse_button.mtl
o Button_button
v 0.030000 -0.080000 0.080000
v -0.040000 -0.080000 0.000000
v 0.030000 -0.080000 -0.080000
v -0.040000 -0.080000 0.000000
v 0.030000 -0.030000 0.080000
v -0.040000 -0.030000 0.000000
v 0.030000 -0.030000 -0.080000
vn 0.0000 -1.0000 0.0000
vn 0.0000 1.0000 0.0000
vn -0.7526 0.0000 -0.6585
vn 1.0000 0.0000 0.0000
vn -0.7526 0.0000 0.6585
usemtl Button
s off
f 2//1 3//1 1//1
f 6//2 5//2 7//2
f 2//3 6//3 7//3 3//3
f 3//4 7//4 5//4 1//4
f 1//5 5//5 6//5 2//5
