# Blender v2.79 (sub 0) OBJ File: 'radar.blend'
# www.blender.org
mtllib radar.mtl
o Cube.002
v -0.371716 -0.125000 0.278787
v -0.371716 -0.121464 0.300000
v -0.400000 -0.121464 0.278787
v -0.371716 -0.124731 0.286905
v -0.371716 -0.123964 0.293787
v -0.382540 -0.124731 0.278787
v -0.382811 -0.124406 0.287108
v -0.382248 -0.123785 0.292708
v -0.388046 -0.123506 0.291034
v -0.382540 -0.121464 0.298385
v -0.391716 -0.121464 0.293787
v -0.371716 -0.122817 0.298385
v -0.382811 -0.122851 0.296436
v -0.390277 -0.122781 0.292708
v -0.397847 -0.122817 0.278787
v -0.391716 -0.123964 0.278787
v -0.397847 -0.121464 0.286905
v -0.395249 -0.122851 0.287108
v -0.390277 -0.123785 0.286686
v -0.346860 -0.031570 0.238317
v -0.317756 -0.031570 0.260145
v -0.311716 -0.035000 0.233787
v -0.344149 -0.031818 0.246298
v -0.337666 -0.031905 0.253249
v -0.342082 -0.032883 0.237278
v -0.339469 -0.033062 0.245307
v -0.335589 -0.033142 0.251692
v -0.332107 -0.033805 0.249080
v -0.316370 -0.032883 0.256561
v -0.314736 -0.033995 0.250294
v -0.328398 -0.031818 0.258112
v -0.327076 -0.033062 0.254602
v -0.325669 -0.034049 0.250413
v -0.323062 -0.034739 0.234826
v -0.333725 -0.033995 0.236052
v -0.313101 -0.034739 0.242296
v -0.324504 -0.034473 0.243378
v -0.333885 -0.034049 0.244252
v -0.371716 -0.125000 -0.278787
v -0.400000 -0.121464 -0.278787
v -0.371716 -0.121464 -0.300000
v -0.382540 -0.124731 -0.278787
v -0.391716 -0.123964 -0.278787
v -0.371716 -0.124731 -0.286905
v -0.382811 -0.124406 -0.287108
v -0.390277 -0.123785 -0.286686
v -0.388046 -0.123506 -0.291034
v -0.397847 -0.121464 -0.286905
v -0.391716 -0.121464 -0.293787
v -0.397847 -0.122817 -0.278787
v -0.395249 -0.122851 -0.287108
v -0.390277 -0.122781 -0.292708
v -0.371716 -0.122817 -0.298385
v -0.371716 -0.123964 -0.293787
v -0.382540 -0.121464 -0.298385
v -0.382811 -0.122851 -0.296436
v -0.382248 -0.123785 -0.292708
v -0.346860 -0.031570 -0.238317
v -0.311716 -0.035000 -0.233787
v -0.317756 -0.031570 -0.260145
v -0.342082 -0.032883 -0.237278
v -0.333725 -0.033995 -0.236052
v -0.344149 -0.031818 -0.246298
v -0.339469 -0.033062 -0.245307
v -0.333885 -0.034049 -0.244252
v -0.332107 -0.033805 -0.249080
v -0.313101 -0.034739 -0.242296
v -0.314736 -0.033995 -0.250294
v -0.323062 -0.034739 -0.234826
v -0.324504 -0.034473 -0.243378
v -0.325669 -0.034049 -0.250413
v -0.328398 -0.031818 -0.258112
v -0.337666 -0.031905 -0.253249
v -0.316370 -0.032883 -0.256561
v -0.327076 -0.033062 -0.254602
v -0.335589 -0.033142 -0.251692
v 0.371716 -0.125000 0.278787
v 0.400000 -0.121464 0.278787
v 0.371716 -0.121464 0.300000
v 0.382540 -0.124731 0.278787
v 0.391716 -0.123964 0.278787
v 0.371716 -0.124731 0.286905
v 0.382811 -0.124406 0.287108
v 0.390277 -0.123785 0.286686
v 0.388046 -0.123506 0.291034
v 0.397847 -0.121464 0.286905
v 0.391716 -0.121464 0.293787
v 0.397847 -0.122817 0.278787
v 0.395249 -0.122851 0.287108
v 0.390277 -0.122781 0.292708
v 0.371716 -0.122817 0.298385
v 0.371716 -0.123964 0.293787
v 0.382540 -0.121464 0.298385
v 0.382811 -0.122851 0.296436
v 0.382248 -0.123785 0.292708
v 0.346860 -0.031570 0.238317
v 0.311716 -0.035000 0.233787
v 0.317756 -0.031570 0.260145
v 0.342082 -0.032883 0.237278
v 0.333725 -0.033995 0.236052
v 0.344149 -0.031818 0.246298
v 0.339469 -0.033062 0.245307
v 0.333885 -0.034049 0.244252
v 0.332107 -0.033805 0.249080
v 0.313101 -0.034739 0.242296
v 0.314736 -0.033995 0.250294
v 0.323062 -0.034739 0.234826
v 0.324504 -0.034473 0.243378
v 0.325669 -0.034049 0.250413
v 0.328398 -0.031818 0.258112
v 0.337666 -0.031905 0.253249
v 0.316370 -0.032883 0.256561
v 0.327076 -0.033062 0.254602
v 0.335589 -0.033142 0.251692
v 0.371716 -0.125000 -0.278787
v 0.371716 -0.121464 -0.300000
v 0.400000 -0.121464 -0.278787
v 0.371716 -0.124731 -0.286905
v 0.371716 -0.123964 -0.293787
v 0.382540 -0.124731 -0.278787
v 0.382811 -0.124406 -0.287108
v 0.382248 -0.123785 -0.292708
v 0.388046 -0.123506 -0.291034
v 0.382540 -0.121464 -0.298385
v 0.391716 -0.121464 -0.293787
v 0.371716 -0.122817 -0.298385
v 0.382811 -0.122851 -0.296436
v 0.390277 -0.122781 -0.292708
v 0.397847 -0.122817 -0.278787
v 0.391716 -0.123964 -0.278787
v 0.397847 -0.121464 -0.286905
v 0.395249 -0.122851 -0.287108
v 0.390277 -0.123785 -0.286686
v 0.317756 -0.031570 -0.260145
v 0.311716 -0.035000 -0.233787
v 0.346860 -0.031570 -0.238317
v 0.316370 -0.032883 -0.256561
v 0.314736 -0.033995 -0.250294
v 0.328398 -0.031818 -0.258112
v 0.327076 -0.033062 -0.254602
v 0.325669 -0.034049 -0.250413
v 0.332107 -0.033805 -0.249080
v 0.323062 -0.034739 -0.234826
v 0.333725 -0.033995 -0.236052
v 0.313101 -0.034739 -0.242296
v 0.324504 -0.034473 -0.243378
v 0.333885 -0.034049 -0.244252
v 0.344149 -0.031818 -0.246298
v 0.337666 -0.031905 -0.253249
v 0.342082 -0.032883 -0.237278
v 0.339469 -0.033062 -0.245307
v 0.335589 -0.033142 -0.251692
v -0.371716 -0.028536 0.300000
v -0.331716 -0.025000 0.278787
v -0.371716 -0.025000 0.248787
v -0.400000 -0.028536 0.278787
v -0.362540 -0.027183 0.298385
v -0.351716 -0.026036 0.293787
v -0.382540 -0.028536 0.298385
v -0.377324 -0.027076 0.296163
v -0.370208 -0.025904 0.292656
v -0.384455 -0.025839 0.288341
v -0.347023 -0.025000 0.276503
v -0.360000 -0.025000 0.270000
v -0.340892 -0.025269 0.286905
v -0.359597 -0.025308 0.285064
v -0.373660 -0.025265 0.280245
v -0.382540 -0.025269 0.255669
v -0.391716 -0.026036 0.263787
v -0.368671 -0.025000 0.260267
v -0.380086 -0.025308 0.269698
v -0.390208 -0.025904 0.277656
v -0.397847 -0.028536 0.286905
v -0.391716 -0.028536 0.293787
v -0.397847 -0.027183 0.271905
v -0.394883 -0.027076 0.282993
v -0.389518 -0.027032 0.292139
v -0.371716 -0.025000 -0.248787
v -0.331716 -0.025000 -0.278787
v -0.371716 -0.028536 -0.300000
v -0.400000 -0.028536 -0.278787
v -0.368671 -0.025000 -0.260267
v -0.360000 -0.025000 -0.270000
v -0.382540 -0.025269 -0.255669
v -0.380086 -0.025308 -0.269698
v -0.373660 -0.025265 -0.280245
v -0.384455 -0.025839 -0.288341
v -0.340892 -0.025269 -0.286905
v -0.351716 -0.026036 -0.293787
v -0.347023 -0.025000 -0.276503
v -0.359597 -0.025308 -0.285064
v -0.370209 -0.025904 -0.292656
v -0.382540 -0.028536 -0.298385
v -0.391716 -0.028536 -0.293787
v -0.362540 -0.027183 -0.298385
v -0.377324 -0.027076 -0.296163
v -0.389518 -0.027032 -0.292139
v -0.397847 -0.027183 -0.271905
v -0.391716 -0.026036 -0.263787
v -0.397847 -0.028536 -0.286905
v -0.394883 -0.027076 -0.282993
v -0.390208 -0.025904 -0.277656
v 0.331716 -0.025000 -0.278787
v 0.371716 -0.025000 -0.248787
v 0.400000 -0.028536 -0.278787
v 0.371716 -0.028536 -0.300000
v 0.347023 -0.025000 -0.276503
v 0.360000 -0.025000 -0.270000
v 0.340892 -0.025269 -0.286905
v 0.359597 -0.025308 -0.285064
v 0.373660 -0.025265 -0.280245
v 0.384455 -0.025839 -0.288341
v 0.382540 -0.025269 -0.255669
v 0.391716 -0.026036 -0.263787
v 0.368671 -0.025000 -0.260267
v 0.380086 -0.025308 -0.269698
v 0.390208 -0.025904 -0.277656
v 0.397847 -0.028536 -0.286905
v 0.391716 -0.028536 -0.293787
v 0.397847 -0.027183 -0.271905
v 0.394883 -0.027076 -0.282993
v 0.389518 -0.027032 -0.292139
v 0.362540 -0.027183 -0.298385
v 0.351716 -0.026036 -0.293787
v 0.382540 -0.028536 -0.298385
v 0.377324 -0.027076 -0.296163
v 0.370208 -0.025904 -0.292656
v 0.371716 -0.025000 0.248787
v 0.331716 -0.025000 0.278787
v 0.371716 -0.028536 0.300000
v 0.400000 -0.028536 0.278787
v 0.368671 -0.025000 0.260267
v 0.360000 -0.025000 0.270000
v 0.382540 -0.025269 0.255669
v 0.380086 -0.025308 0.269698
v 0.373660 -0.025265 0.280245
v 0.384455 -0.025839 0.288341
v 0.340892 -0.025269 0.286905
v 0.351716 -0.026036 0.293787
v 0.347023 -0.025000 0.276503
v 0.359597 -0.025308 0.285064
v 0.370209 -0.025904 0.292656
v 0.382540 -0.028536 0.298385
v 0.391716 -0.028536 0.293787
v 0.362540 -0.027183 0.298385
v 0.377324 -0.027076 0.296163
v 0.389518 -0.027032 0.292139
v 0.397847 -0.027183 0.271905
v 0.391716 -0.026036 0.263787
v 0.397847 -0.028536 0.286905
v 0.394883 -0.027076 0.282993
v 0.390208 -0.025904 0.277656
v -0.353140 -0.028430 0.243027
v -0.388284 -0.025000 0.261213
v -0.348284 -0.025000 0.291213
v -0.324036 -0.028430 0.264855
v -0.357918 -0.027117 0.247199
v -0.366275 -0.026005 0.252120
v -0.350429 -0.028678 0.251008
v -0.355507 -0.027126 0.255804
v -0.362839 -0.025905 0.260836
v -0.357356 -0.025856 0.268017
v -0.385239 -0.025000 0.272694
v -0.376569 -0.025000 0.282426
v -0.376938 -0.025261 0.257041
v -0.372692 -0.025299 0.266650
v -0.366479 -0.025257 0.274859
v -0.342722 -0.025261 0.282704
v -0.336160 -0.026005 0.274706
v -0.363592 -0.025000 0.288930
v -0.355533 -0.025299 0.279519
v -0.347781 -0.025905 0.272129
v -0.334678 -0.028678 0.262822
v -0.343946 -0.028765 0.257959
v -0.329598 -0.027117 0.268439
v -0.341072 -0.027126 0.266630
v -0.350167 -0.027139 0.262626
v -0.353140 -0.028430 -0.243027
v -0.324036 -0.028430 -0.264855
v -0.348284 -0.025000 -0.291213
v -0.388284 -0.025000 -0.261213
v -0.350429 -0.028678 -0.251008
v -0.343946 -0.028765 -0.257959
v -0.357918 -0.027117 -0.247199
v -0.355507 -0.027126 -0.255804
v -0.350167 -0.027139 -0.262626
v -0.357356 -0.025856 -0.268017
v -0.329598 -0.027117 -0.268439
v -0.336160 -0.026005 -0.274706
v -0.334678 -0.028678 -0.262822
v -0.341072 -0.027126 -0.266630
v -0.347781 -0.025905 -0.272129
v -0.363592 -0.025000 -0.288930
v -0.376569 -0.025000 -0.282426
v -0.342722 -0.025261 -0.282704
v -0.355533 -0.025299 -0.279519
v -0.366479 -0.025257 -0.274859
v -0.376938 -0.025261 -0.257041
v -0.366275 -0.026005 -0.252120
v -0.385239 -0.025000 -0.272694
v -0.372692 -0.025299 -0.266650
v -0.362839 -0.025905 -0.260836
v 0.324036 -0.028430 -0.264855
v 0.353140 -0.028430 -0.243027
v 0.388284 -0.025000 -0.261213
v 0.348284 -0.025000 -0.291213
v 0.334678 -0.028678 -0.262822
v 0.343946 -0.028765 -0.257959
v 0.329598 -0.027117 -0.268439
v 0.341072 -0.027126 -0.266630
v 0.350167 -0.027139 -0.262626
v 0.357356 -0.025856 -0.268017
v 0.357918 -0.027117 -0.247199
v 0.366275 -0.026005 -0.252120
v 0.350429 -0.028678 -0.251008
v 0.355507 -0.027126 -0.255804
v 0.362839 -0.025905 -0.260836
v 0.385239 -0.025000 -0.272694
v 0.376569 -0.025000 -0.282426
v 0.376938 -0.025261 -0.257041
v 0.372692 -0.025299 -0.266650
v 0.366479 -0.025257 -0.274859
v 0.342722 -0.025261 -0.282704
v 0.336160 -0.026005 -0.274706
v 0.363592 -0.025000 -0.288930
v 0.355533 -0.025299 -0.279519
v 0.347781 -0.025905 -0.272129
v 0.353140 -0.028430 0.243027
v 0.324036 -0.028430 0.264855
v 0.348284 -0.025000 0.291213
v 0.388284 -0.025000 0.261213
v 0.350429 -0.028678 0.251008
v 0.343946 -0.028765 0.257959
v 0.357918 -0.027117 0.247199
v 0.355507 -0.027126 0.255804
v 0.350167 -0.027139 0.262626
v 0.357356 -0.025856 0.268017
v 0.329598 -0.027117 0.268439
v 0.336160 -0.026005 0.274706
v 0.334678 -0.028678 0.262822
v 0.341072 -0.027126 0.266630
v 0.347781 -0.025905 0.272129
v 0.363592 -0.025000 0.288930
v 0.376569 -0.025000 0.282426
v 0.342722 -0.025261 0.282704
v 0.355533 -0.025299 0.279519
v 0.366479 -0.025257 0.274859
v 0.376938 -0.025261 0.257041
v 0.366275 -0.026005 0.252120
v 0.385239 -0.025000 0.272694
v 0.372692 -0.025299 0.266650
v 0.362839 -0.025905 0.260836
vt 0.000000 0.000000
vt 0.000000 0.000000
vt 0.000000 0.000000
vt 0.000000 0.000000
vt 0.000000 0.000000
vt 0.000000 0.000000
vt 0.000000 0.000000
vt 0.000000 0.000000
vt 0.000000 0.000000
vt 0.000000 0.000000
vt 0.000000 0.000000
vt 0.000000 0.000000
vt 0.000000 0.000000
vt 0.000000 0.000000
vt 0.000000 0.000000
vt 0.000000 0.000000
vt 0.000000 0.000000
vt 0.000000 0.000000
vt 0.000000 0.000000
vt 0.000000 0.000000
vt 0.000000 0.000000
vt 0.000000 0.000000
vt 0.000000 0.000000
vt 0.000000 0.000000
vt 0.000000 0.000000
vt 0.000000 0.000000
vt 0.000000 0.000000
vt 0.000000 0.000000
vt 0.000000 0.000000
vt 0.000000 0.000000
vt 0.000000 0.000000
vt 0.000000 0.000000
vt 0.000000 0.000000
vt 0.000000 0.000000
vt 0.000000 0.000000
vt 0.000000 0.000000
vt 0.000000 0.000000
vt 0.000000 0.000000
vt 0.000000 0.000000
vt 0.000000 0.000000
vt 0.000000 0.000000
vt 0.000000 0.000000
vt 0.000000 0.000000
vt 0.000000 0.000000
vt 0.000000 0.000000
vt 0.000000 0.000000
vt 0.000000 0.000000
vt 0.000000 0.000000
vt 0.000000 0.000000
vt 0.000000 0.000000
vt 0.000000 0.000000
vt 0.000000 0.000000
vt 0.000000 0.000000
vt 0.000000 0.000000
vt 0.000000 0.000000
vt 0.000000 0.000000
vt 0.000000 0.000000
vt 0.000000 0.000000
vt 0.000000 0.000000
vt 0.000000 0.000000
vt 0.000000 0.000000
vt 0.000000 0.000000
vt 0.000000 0.000000
vt 0.000000 0.000000
vt 0.000000 0.000000
vt 0.000000 0.000000
vt 0.000000 0.000000
vt 0.000000 0.000000
vt 0.000000 0.000000
vt 0.000000 0.000000
vt 0.000000 0.000000
vt 0.000000 0.000000
vt 0.000000 0.000000
vt 0.000000 0.000000
vt 0.000000 0.000000
vt 0.000000 0.000000
vt 0.000000 0.000000
vt 0.000000 0.000000
vt 0.000000 0.000000
vt 0.000000 0.000000
vt 0.000000 0.000000
vt 0.000000 0.000000
vt 0.000000 0.000000
vt 0.000000 0.000000
vt 0.000000 0.000000
vt 0.000000 0.000000
vt 0.000000 0.000000
vt 0.000000 0.000000
vt 0.000000 0.000000
vt 0.000000 0.000000
vt 0.000000 0.000000
vt 0.000000 0.000000
vt 0.000000 0.000000
vt 0.000000 0.000000
vt 0.000000 0.000000
vt 0.000000 0.000000
vt 0.000000 0.000000
vt 0.000000 0.000000
vt 0.000000 0.000000
vt 0.000000 0.000000
vt 0.000000 0.000000
vt 0.000000 0.000000
vt 0.000000 0.000000
vt 0.000000 0.000000
vt 0.000000 0.000000
vt 0.000000 0.000000
vt 0.000000 0.000000
vt 0.000000 0.000000
vt 0.000000 0.000000
vt 0.000000 0.000000
vt 0.000000 0.000000
vt 0.000000 0.000000
vt 0.000000 0.000000
vt 0.000000 0.000000
vt 0.000000 0.000000
vt 0.000000 0.000000
vt 0.000000 0.000000
vt 0.000000 0.000000
vt 0.000000 0.000000
vt 0.000000 0.000000
vt 0.000000 0.000000
vt 0.000000 0.000000
vt 0.000000 0.000000
vt 0.000000 0.000000
vt 0.000000 0.000000
vt 0.000000 0.000000
vt 0.000000 0.000000
vt 0.000000 0.000000
vt 0.000000 0.000000
vt 0.000000 0.000000
vt 0.000000 0.000000
vt 0.000000 0.000000
vt 0.000000 0.000000
vt 0.000000 0.000000
vt 0.000000 0.000000
vt 0.000000 0.000000
vt 0.000000 0.000000
vt 0.000000 0.000000
vt 0.000000 0.000000
vt 0.000000 0.000000
vt 0.000000 0.000000
vt 0.000000 0.000000
vt 0.000000 0.000000
vt 0.000000 0.000000
vt 0.000000 0.000000
vt 0.000000 0.000000
vt 0.000000 0.000000
vt 0.000000 0.000000
vt 0.000000 0.000000
vt 0.000000 0.000000
vt 0.000000 0.000000
vt 0.000000 0.000000
vt 0.000000 0.000000
vt 0.000000 0.000000
vt 0.000000 0.000000
vt 0.000000 0.000000
vt 0.000000 0.000000
vt 0.000000 0.000000
vt 0.000000 0.000000
vt 0.000000 0.000000
vt 0.000000 0.000000
vt 0.000000 0.000000
vt 0.000000 0.000000
vt 0.000000 0.000000
vt 0.000000 0.000000
vt 0.000000 0.000000
vt 0.000000 0.000000
vt 0.000000 0.000000
vt 0.000000 0.000000
vt 0.000000 0.000000
vt 0.000000 0.000000
vt 0.000000 0.000000
vt 0.000000 0.000000
vt 0.000000 0.000000
vt 0.000000 0.000000
vt 0.000000 0.000000
vt 0.000000 0.000000
vt 0.000000 0.000000
vt 0.000000 0.000000
vt 0.000000 0.000000
vt 0.000000 0.000000
vt 0.000000 0.000000
vt 0.000000 0.000000
vt 0.000000 0.000000
vt 0.000000 0.000000
vt 0.000000 0.000000
vt 0.000000 0.000000
vt 0.000000 0.000000
vt 0.000000 0.000000
vt 0.000000 0.000000
vt 0.000000 0.000000
vt 0.000000 0.000000
vt 0.000000 0.000000
vt 0.000000 0.000000
vt 0.000000 0.000000
vt 0.000000 0.000000
vt 0.000000 0.000000
vt 0.000000 0.000000
vt 0.000000 0.000000
vt 0.000000 0.000000
vt 0.000000 0.000000
vt 0.000000 0.000000
vt 0.000000 0.000000
vt 0.000000 0.000000
vt 0.000000 0.000000
vt 0.000000 0.000000
vt 0.000000 0.000000
vt 0.000000 0.000000
vt 0.000000 0.000000
vt 0.000000 0.000000
vt 0.000000 0.000000
vt 0.000000 0.000000
vt 0.000000 0.000000
vt 0.000000 0.000000
vt 0.000000 0.000000
vt 0.000000 0.000000
vt 0.000000 0.000000
vt 0.000000 0.000000
vt 0.000000 0.000000
vt 0.000000 0.000000
vt 0.000000 0.000000
vt 0.000000 0.000000
vt 0.000000 0.000000
vt 0.000000 0.000000
vt 0.000000 0.000000
vt 0.000000 0.000000
vt 0.000000 0.000000
vt 0.000000 0.000000
vt 0.000000 0.000000
vt 0.000000 0.000000
vt 0.000000 0.000000
vt 0.000000 0.000000
vt 0.000000 0.000000
vt 0.000000 0.000000
vt 0.000000 0.000000
vt 0.000000 0.000000
vt 0.000000 0.000000
vt 0.000000 0.000000
vt 0.000000 0.000000
vt 0.000000 0.000000
vt 0.000000 0.000000
vt 0.000000 0.000000
vt 0.000000 0.000000
vt 0.000000 0.000000
vt 0.000000 0.000000
vt 0.000000 0.000000
vt 0.000000 0.000000
vt 0.000000 0.000000
vt 0.000000 0.000000
vt 0.000000 0.000000
vt 0.000000 0.000000
vt 0.000000 0.000000
vt 0.000000 0.000000
vt 0.000000 0.000000
vt 0.000000 0.000000
vt 0.000000 0.000000
vt 0.000000 0.000000
vt 0.000000 0.000000
vt 0.000000 0.000000
vt 0.000000 0.000000
vt 0.000000 0.000000
vt 0.000000 0.000000
vt 0.000000 0.000000
vt 0.000000 0.000000
vt 0.000000 0.000000
vt 0.000000 0.000000
vt 0.000000 0.000000
vt 0.000000 0.000000
vt 0.000000 0.000000
vt 0.000000 0.000000
vt 0.000000 0.000000
vt 0.000000 0.000000
vt 0.000000 0.000000
vt 0.000000 0.000000
vt 0.000000 0.000000
vt 0.000000 0.000000
vt 0.000000 0.000000
vt 0.000000 0.000000
vt 0.000000 0.000000
vt 0.000000 0.000000
vt 0.000000 0.000000
vt 0.000000 0.000000
vt 0.000000 0.000000
vt 0.000000 0.000000
vt 0.000000 0.000000
vt 0.000000 0.000000
vt 0.000000 0.000000
vt 0.000000 0.000000
vt 0.000000 0.000000
vt 0.000000 0.000000
vt 0.000000 0.000000
vt 0.000000 0.000000
vt 0.000000 0.000000
vt 0.000000 0.000000
vt 0.000000 0.000000
vt 0.000000 0.000000
vt 0.000000 0.000000
vt 0.000000 0.000000
vt 0.000000 0.000000
vt 0.000000 0.000000
vt 0.000000 0.000000
vt 0.000000 0.000000
vt 0.000000 0.000000
vt 0.000000 0.000000
vt 0.000000 0.000000
vt 0.000000 0.000000
vt 0.000000 0.000000
vt 0.000000 0.000000
vt 0.000000 0.000000
vt 0.000000 0.000000
vt 0.000000 0.000000
vt 0.000000 0.000000
vt 0.000000 0.000000
vt 0.000000 0.000000
vt 0.000000 0.000000
vt 0.000000 0.000000
vt 0.000000 0.000000
vt 0.000000 0.000000
vt 0.000000 0.000000
vt 0.000000 0.000000
vt 0.000000 0.000000
vt 0.000000 0.000000
vt 0.000000 0.000000
vt 0.000000 0.000000
vt 0.000000 0.000000
vt 0.000000 0.000000
vt 0.000000 0.000000
vt 0.000000 0.000000
vt 0.000000 0.000000
vt 0.000000 0.000000
vt 0.000000 0.000000
vt 0.000000 0.000000
vt 0.000000 0.000000
vt 0.000000 0.000000
vt 0.000000 0.000000
vt 0.000000 0.000000
vt 0.958314 0.958314
vt 0.041686 0.958314
vt 0.041686 0.041686
vt 0.958314 0.041686
vt 0.025004 0.039649
vt 0.022884 0.022884
vt 0.039649 0.025004
vt 0.000100 0.037246
vt 0.000100 0.021171
vt 0.021171 0.000100
vt 0.037246 0.000100
vt 0.000100 0.011705
vt 0.039649 0.974996
vt 0.022884 0.977116
vt 0.025004 0.960351
vt 0.037246 0.999900
vt 0.021171 0.999900
vt 0.000100 0.978829
vt 0.000100 0.962754
vt 0.011705 0.999900
vt 0.960351 0.025004
vt 0.977116 0.022884
vt 0.974996 0.039649
vt 0.962754 0.000100
vt 0.978829 0.000100
vt 0.999900 0.021171
vt 0.999900 0.037246
vt 0.988294 0.000100
vt 0.974996 0.960351
vt 0.977117 0.977116
vt 0.960351 0.974996
vt 0.999900 0.962754
vt 0.999900 0.978829
vt 0.978829 0.999900
vt 0.962754 0.999900
vt 0.999900 0.988294
vn 0.0000 0.0000 1.0000
vn 0.0000 0.8321 0.5547
vn -0.4472 0.8944 0.0000
vn 0.4472 0.8944 0.0000
vn -1.0000 0.0000 0.0000
vn 0.0000 0.8321 -0.5547
vn 0.0000 -1.0000 0.0000
vn 1.0000 0.0000 0.0000
vn 0.0000 0.0000 -1.0000
vn -0.0267 -0.9990 0.0357
vn -0.0277 -0.9934 0.1117
vn -0.0840 -0.9958 0.0370
vn -0.0851 -0.9899 0.1135
vn -0.0982 -0.7853 0.6113
vn -0.2899 -0.7667 0.5729
vn -0.0401 -0.9700 0.2396
vn -0.1206 -0.9648 0.2337
vn -0.4990 -0.8548 0.1425
vn -0.1819 -0.9818 0.0541
vn -0.4475 -0.7986 0.4025
vn -0.1764 -0.9709 0.1618
vn 0.2491 0.9668 -0.0570
vn 0.2709 0.9419 -0.1987
vn 0.1476 0.9890 -0.0081
vn 0.1442 0.9857 -0.0871
vn 0.0418 0.9449 -0.3246
vn 0.0061 0.9807 -0.1952
vn 0.1462 0.9237 -0.3543
vn 0.0649 0.9794 -0.1910
vn -0.0267 -0.9990 -0.0357
vn -0.0840 -0.9958 -0.0370
vn -0.0277 -0.9934 -0.1117
vn -0.0851 -0.9899 -0.1135
vn -0.4990 -0.8548 -0.1425
vn -0.4475 -0.7986 -0.4025
vn -0.1819 -0.9818 -0.0541
vn -0.1764 -0.9709 -0.1618
vn -0.0982 -0.7853 -0.6113
vn -0.0401 -0.9700 -0.2396
vn -0.2899 -0.7667 -0.5729
vn -0.1206 -0.9648 -0.2337
vn 0.2491 0.9668 0.0570
vn 0.1476 0.9890 0.0081
vn 0.2709 0.9419 0.1987
vn 0.1442 0.9857 0.0871
vn 0.0418 0.9449 0.3246
vn 0.1462 0.9237 0.3543
vn 0.0061 0.9807 0.1952
vn 0.0649 0.9794 0.1910
vn 0.0267 -0.9990 0.0357
vn 0.0840 -0.9958 0.0370
vn 0.0277 -0.9934 0.1117
vn 0.0851 -0.9899 0.1135
vn 0.4990 -0.8548 0.1425
vn 0.4475 -0.7986 0.4025
vn 0.1819 -0.9818 0.0541
vn 0.1764 -0.9709 0.1618
vn 0.0982 -0.7853 0.6113
vn 0.0401 -0.9700 0.2396
vn 0.2899 -0.7667 0.5729
vn 0.1206 -0.9648 0.2337
vn -0.2491 0.9668 -0.0570
vn -0.1476 0.9890 -0.0081
vn -0.2709 0.9419 -0.1987
vn -0.1442 0.9857 -0.0871
vn -0.0418 0.9449 -0.3246
vn -0.1462 0.9237 -0.3543
vn -0.0061 0.9807 -0.1952
vn -0.0649 0.9794 -0.1910
vn 0.0267 -0.9990 -0.0357
vn 0.0277 -0.9934 -0.1117
vn 0.0840 -0.9958 -0.0370
vn 0.0851 -0.9899 -0.1135
vn 0.0982 -0.7853 -0.6113
vn 0.2899 -0.7667 -0.5729
vn 0.0401 -0.9700 -0.2396
vn 0.1206 -0.9648 -0.2337
vn 0.4990 -0.8548 -0.1425
vn 0.1819 -0.9818 -0.0541
vn 0.4475 -0.7986 -0.4025
vn 0.1764 -0.9709 -0.1618
vn -0.0418 0.9449 0.3246
vn -0.0061 0.9807 0.1952
vn -0.1462 0.9237 0.3543
vn -0.0649 0.9794 0.1910
vn -0.2491 0.9668 0.0570
vn -0.2709 0.9419 0.1987
vn -0.1476 0.9890 0.0081
vn -0.1442 0.9857 0.0871
vn -0.0609 0.9001 0.4313
vn -0.0172 0.9707 0.2396
vn -0.1568 0.9060 0.3932
vn -0.0626 0.9754 0.2114
vn -0.0046 0.9996 0.0286
vn -0.0070 0.9998 0.0207
vn -0.0045 0.9962 0.0871
vn -0.0140 0.9984 0.0554
vn -0.0214 0.9998 0.0062
vn -0.0654 0.9978 0.0060
vn -0.0155 0.9998 0.0094
vn -0.0415 0.9990 0.0187
vn -0.3370 0.9377 0.0846
vn -0.3023 0.9288 0.2143
vn -0.1820 0.9830 0.0232
vn -0.1599 0.9835 0.0842
vn -0.0214 0.9998 -0.0062
vn -0.0155 0.9998 -0.0094
vn -0.0654 0.9978 -0.0060
vn -0.0415 0.9990 -0.0187
vn -0.0046 0.9996 -0.0286
vn -0.0045 0.9962 -0.0871
vn -0.0070 0.9998 -0.0207
vn -0.0140 0.9984 -0.0554
vn -0.0609 0.9001 -0.4313
vn -0.1568 0.9060 -0.3932
vn -0.0172 0.9707 -0.2396
vn -0.0626 0.9754 -0.2114
vn -0.3370 0.9377 -0.0846
vn -0.1820 0.9830 -0.0232
vn -0.3023 0.9288 -0.2143
vn -0.1599 0.9835 -0.0842
vn 0.0046 0.9996 -0.0286
vn 0.0070 0.9998 -0.0207
vn 0.0045 0.9962 -0.0871
vn 0.0140 0.9984 -0.0554
vn 0.0214 0.9998 -0.0062
vn 0.0654 0.9978 -0.0060
vn 0.0155 0.9998 -0.0094
vn 0.0415 0.9990 -0.0187
vn 0.3370 0.9377 -0.0846
vn 0.3023 0.9288 -0.2143
vn 0.1820 0.9830 -0.0232
vn 0.1599 0.9835 -0.0842
vn 0.0609 0.9001 -0.4313
vn 0.0172 0.9707 -0.2396
vn 0.1568 0.9060 -0.3932
vn 0.0626 0.9754 -0.2114
vn 0.0214 0.9998 0.0062
vn 0.0155 0.9998 0.0094
vn 0.0654 0.9978 0.0060
vn 0.0415 0.9990 0.0187
vn 0.0046 0.9996 0.0286
vn 0.0045 0.9962 0.0871
vn 0.0070 0.9998 0.0207
vn 0.0140 0.9984 0.0554
vn 0.0609 0.9001 0.4313
vn 0.1568 0.9060 0.3932
vn 0.0172 0.9707 0.2396
vn 0.0626 0.9754 0.2114
vn 0.3370 0.9377 0.0846
vn 0.1820 0.9830 0.0232
vn 0.3023 0.9288 0.2143
vn 0.1599 0.9835 0.0842
vn 0.2310 0.9713 -0.0564
vn 0.1188 0.9919 -0.0453
vn 0.1634 0.9775 -0.1331
vn 0.1086 0.9903 -0.0865
vn 0.0211 0.9998 -0.0055
vn 0.0154 0.9998 -0.0152
vn 0.0524 0.9983 -0.0253
vn 0.0394 0.9986 -0.0359
vn 0.0041 0.9996 -0.0281
vn 0.0190 0.9974 -0.0698
vn 0.0114 0.9997 -0.0206
vn 0.0270 0.9983 -0.0526
vn 0.0414 0.9524 -0.3021
vn 0.0992 0.9712 -0.2165
vn 0.0338 0.9869 -0.1576
vn 0.0647 0.9874 -0.1444
vn 0.2310 0.9713 0.0564
vn 0.1634 0.9775 0.1331
vn 0.1188 0.9919 0.0453
vn 0.1086 0.9903 0.0865
vn 0.0414 0.9524 0.3021
vn 0.0338 0.9869 0.1576
vn 0.0992 0.9712 0.2165
vn 0.0647 0.9874 0.1444
vn 0.0041 0.9996 0.0281
vn 0.0114 0.9997 0.0206
vn 0.0190 0.9974 0.0698
vn 0.0270 0.9983 0.0526
vn 0.0211 0.9998 0.0055
vn 0.0524 0.9983 0.0253
vn 0.0154 0.9998 0.0152
vn 0.0394 0.9986 0.0359
vn -0.0414 0.9524 0.3021
vn -0.0992 0.9712 0.2165
vn -0.0338 0.9869 0.1576
vn -0.0647 0.9874 0.1444
vn -0.2310 0.9713 0.0564
vn -0.1188 0.9919 0.0453
vn -0.1634 0.9775 0.1331
vn -0.1086 0.9903 0.0865
vn -0.0211 0.9998 0.0055
vn -0.0154 0.9998 0.0152
vn -0.0524 0.9983 0.0253
vn -0.0394 0.9986 0.0359
vn -0.0041 0.9996 0.0281
vn -0.0190 0.9974 0.0698
vn -0.0114 0.9997 0.0206
vn -0.0270 0.9983 0.0526
vn -0.2310 0.9713 -0.0564
vn -0.1634 0.9775 -0.1331
vn -0.1188 0.9919 -0.0453
vn -0.1086 0.9903 -0.0865
vn -0.0414 0.9524 -0.3021
vn -0.0338 0.9869 -0.1576
vn -0.0992 0.9712 -0.2165
vn -0.0647 0.9874 -0.1444
vn -0.0041 0.9996 -0.0281
vn -0.0114 0.9997 -0.0206
vn -0.0190 0.9974 -0.0698
vn -0.0270 0.9983 -0.0526
vn -0.0211 0.9998 -0.0055
vn -0.0524 0.9983 -0.0253
vn -0.0154 0.9998 -0.0152
vn -0.0394 0.9986 -0.0359
vn -0.0249 -0.9997 -0.0000
vn -0.0832 -0.9965 0.0000
vn -0.1839 -0.9829 0.0000
vn -0.5321 -0.8467 0.0000
vn -0.1476 0.0000 0.9891
vn -0.4480 0.0000 0.8940
vn -0.7467 0.0000 0.6652
vn -0.9666 0.0000 0.2564
vn -0.0249 0.9997 0.0000
vn -0.0832 0.9965 0.0000
vn -0.1839 0.9829 0.0000
vn -0.5321 0.8467 0.0000
vn -0.1476 0.0000 -0.9891
vn -0.4480 0.0000 -0.8940
vn -0.7467 0.0000 -0.6652
vn -0.9666 0.0000 -0.2564
vn 0.0000 -0.9995 -0.0331
vn 0.0000 -0.9939 -0.1107
vn 0.0000 -0.9703 -0.2420
vn 0.0000 -0.7665 -0.6422
vn 0.0000 0.9995 -0.0331
vn 0.0000 0.9939 -0.1107
vn 0.0000 0.9703 -0.2420
vn 0.0000 0.7665 -0.6422
vn 0.9666 0.0000 -0.2564
vn 0.7467 0.0000 -0.6652
vn 0.4480 0.0000 -0.8940
vn 0.1476 0.0000 -0.9891
vn 0.0249 -0.9997 0.0000
vn 0.0832 -0.9965 0.0000
vn 0.1839 -0.9829 0.0000
vn 0.5321 -0.8467 0.0000
vn 0.0249 0.9997 0.0000
vn 0.0832 0.9965 0.0000
vn 0.1839 0.9829 0.0000
vn 0.5321 0.8467 0.0000
vn 0.1476 0.0000 0.9891
vn 0.4480 0.0000 0.8940
vn 0.7467 0.0000 0.6652
vn 0.9666 0.0000 0.2564
vn 0.0000 -0.9995 0.0331
vn 0.0000 -0.9939 0.1107
vn 0.0000 -0.9703 0.2420
vn 0.0000 -0.7665 0.6422
vn 0.0000 0.9995 0.0331
vn 0.0000 0.9939 0.1107
vn 0.0000 0.9703 0.2420
vn 0.0000 0.7665 0.6422
vn 0.2649 0.9643 0.0000
vn 0.1320 0.9913 0.0000
vn 0.0696 0.9976 0.0000
vn 0.0230 0.9997 0.0000
vn 0.0000 0.9390 0.3439
vn 0.0000 0.9846 0.1748
vn 0.0000 0.9957 0.0926
vn 0.0000 0.9995 0.0307
vn -0.2649 0.9643 0.0000
vn -0.1320 0.9913 0.0000
vn -0.0696 0.9976 0.0000
vn -0.0230 0.9997 0.0000
vn 0.0000 0.9390 -0.3439
vn 0.0000 0.9846 -0.1748
vn 0.0000 0.9957 -0.0926
vn 0.0000 0.9995 -0.0307
vn 0.0723 0.8717 -0.4847
vn 0.1828 0.9129 -0.3648
vn 0.2782 0.9280 -0.2478
vn 0.3829 0.9182 -0.1016
vn 0.0723 0.8717 0.4847
vn 0.1828 0.9129 0.3648
vn 0.2782 0.9280 0.2478
vn 0.3829 0.9182 0.1016
vn -0.3829 0.9182 0.1016
vn -0.2782 0.9280 0.2478
vn -0.1828 0.9129 0.3648
vn -0.0723 0.8717 0.4847
vn -0.0723 0.8717 -0.4847
vn -0.1828 0.9129 -0.3648
vn -0.2782 0.9280 -0.2478
vn -0.3829 0.9182 -0.1016
vn 0.0000 1.0000 0.0000
vn 0.0206 0.9994 -0.0274
vn 0.0574 0.9983 -0.0072
vn 0.0054 0.9971 -0.0765
vn 0.0438 0.9973 -0.0584
vn 0.0206 0.9994 0.0274
vn 0.0054 0.9971 0.0765
vn 0.0574 0.9983 0.0072
vn 0.0438 0.9973 0.0584
vn -0.0206 0.9994 -0.0274
vn -0.0054 0.9971 -0.0765
vn -0.0574 0.9983 -0.0072
vn -0.0438 0.9973 -0.0584
vn -0.0206 0.9994 0.0274
vn -0.0574 0.9983 0.0072
vn -0.0054 0.9971 0.0765
vn -0.0438 0.9973 0.0584
usemtl Display
s off
f 79/1/1 230/2/1 153/3/1 2/4/1
f 60/5/2 134/6/2 303/7/2 279/8/2
f 136/9/3 96/10/3 328/11/3 304/12/3
f 20/13/4 58/14/4 278/15/4 253/16/4
f 3/17/5 156/18/5 181/19/5 40/20/5
f 98/21/6 21/22/6 256/23/6 329/24/6
f 330/25/7 255/26/7 154/27/7 229/28/7
f 305/29/7 331/30/7 228/31/7 204/32/7
f 280/33/7 306/34/7 203/35/7 179/36/7
f 117/37/8 205/38/8 231/39/8 78/40/8
f 254/41/7 281/42/7 178/43/7 155/44/7
f 41/45/9 180/46/9 206/47/9 116/48/9
f 1/49/10 4/50/10 7/51/10 6/52/10
f 4/50/11 5/53/11 8/54/11 7/51/11
f 6/52/12 7/51/12 19/55/12 16/56/12
f 7/51/13 8/54/13 9/57/13 19/55/13
f 2/4/14 10/58/14 13/59/14 12/60/14
f 10/58/15 11/61/15 14/62/15 13/59/15
f 12/60/16 13/59/16 8/54/16 5/53/16
f 13/59/17 14/62/17 9/57/17 8/54/17
f 3/17/18 15/63/18 18/64/18 17/65/18
f 15/63/19 16/56/19 19/55/19 18/64/19
f 17/65/20 18/64/20 14/62/20 11/61/20
f 18/64/21 19/55/21 9/57/21 14/62/21
f 20/13/22 23/66/22 26/67/22 25/68/22
f 23/66/23 24/69/23 27/70/23 26/67/23
f 25/68/24 26/67/24 38/71/24 35/72/24
f 26/67/25 27/70/25 28/73/25 38/71/25
f 21/22/26 29/74/26 32/75/26 31/76/26
f 29/74/27 30/77/27 33/78/27 32/75/27
f 31/76/28 32/75/28 27/70/28 24/69/28
f 32/75/29 33/78/29 28/73/29 27/70/29
f 39/79/30 42/80/30 45/81/30 44/82/30
f 42/80/31 43/83/31 46/84/31 45/81/31
f 44/82/32 45/81/32 57/85/32 54/86/32
f 45/81/33 46/84/33 47/87/33 57/85/33
f 40/20/34 48/88/34 51/89/34 50/90/34
f 48/88/35 49/91/35 52/92/35 51/89/35
f 50/90/36 51/89/36 46/84/36 43/83/36
f 51/89/37 52/92/37 47/87/37 46/84/37
f 41/45/38 53/93/38 56/94/38 55/95/38
f 53/93/39 54/86/39 57/85/39 56/94/39
f 55/95/40 56/94/40 52/92/40 49/91/40
f 56/94/41 57/85/41 47/87/41 52/92/41
f 58/14/42 61/96/42 64/97/42 63/98/42
f 61/96/43 62/99/43 65/100/43 64/97/43
f 63/98/44 64/97/44 76/101/44 73/102/44
f 64/97/45 65/100/45 66/103/45 76/101/45
f 60/5/46 72/104/46 75/105/46 74/106/46
f 72/104/47 73/102/47 76/101/47 75/105/47
f 74/106/48 75/105/48 71/107/48 68/108/48
f 75/105/49 76/101/49 66/103/49 71/107/49
f 77/109/50 80/110/50 83/111/50 82/112/50
f 80/110/51 81/113/51 84/114/51 83/111/51
f 82/112/52 83/111/52 95/115/52 92/116/52
f 83/111/53 84/114/53 85/117/53 95/115/53
f 78/40/54 86/118/54 89/119/54 88/120/54
f 86/118/55 87/121/55 90/122/55 89/119/55
f 88/120/56 89/119/56 84/114/56 81/113/56
f 89/119/57 90/122/57 85/117/57 84/114/57
f 79/1/58 91/123/58 94/124/58 93/125/58
f 91/123/59 92/116/59 95/115/59 94/124/59
f 93/125/60 94/124/60 90/122/60 87/121/60
f 94/124/61 95/115/61 85/117/61 90/122/61
f 96/10/62 99/126/62 102/127/62 101/128/62
f 99/126/63 100/129/63 103/130/63 102/127/63
f 101/128/64 102/127/64 114/131/64 111/132/64
f 102/127/65 103/130/65 104/133/65 114/131/65
f 98/21/66 110/134/66 113/135/66 112/136/66
f 110/134/67 111/132/67 114/131/67 113/135/67
f 112/136/68 113/135/68 109/137/68 106/138/68
f 113/135/69 114/131/69 104/133/69 109/137/69
f 115/139/70 118/140/70 121/141/70 120/142/70
f 118/140/71 119/143/71 122/144/71 121/141/71
f 120/142/72 121/141/72 133/145/72 130/146/72
f 121/141/73 122/144/73 123/147/73 133/145/73
f 116/48/74 124/148/74 127/149/74 126/150/74
f 124/148/75 125/151/75 128/152/75 127/149/75
f 126/150/76 127/149/76 122/144/76 119/143/76
f 127/149/77 128/152/77 123/147/77 122/144/77
f 117/37/78 129/153/78 132/154/78 131/155/78
f 129/153/79 130/146/79 133/145/79 132/154/79
f 131/155/80 132/154/80 128/152/80 125/151/80
f 132/154/81 133/145/81 123/147/81 128/152/81
f 134/6/82 137/156/82 140/157/82 139/158/82
f 137/156/83 138/159/83 141/160/83 140/157/83
f 139/158/84 140/157/84 152/161/84 149/162/84
f 140/157/85 141/160/85 142/163/85 152/161/85
f 136/9/86 148/164/86 151/165/86 150/166/86
f 148/164/87 149/162/87 152/161/87 151/165/87
f 150/166/88 151/165/88 147/167/88 144/168/88
f 151/165/89 152/161/89 142/163/89 147/167/89
f 153/3/90 157/169/90 160/170/90 159/171/90
f 157/169/91 158/172/91 161/173/91 160/170/91
f 159/171/92 160/170/92 177/174/92 174/175/92
f 160/170/93 161/173/93 162/176/93 177/174/93
f 154/27/94 163/177/94 166/178/94 165/179/94
f 163/177/95 164/180/95 167/181/95 166/178/95
f 165/179/96 166/178/96 161/173/96 158/172/96
f 166/178/97 167/181/97 162/176/97 161/173/97
f 155/44/98 168/182/98 171/183/98 170/184/98
f 168/182/99 169/185/99 172/186/99 171/183/99
f 170/184/100 171/183/100 167/181/100 164/180/100
f 171/183/101 172/186/101 162/176/101 167/181/101
f 156/18/102 173/187/102 176/188/102 175/189/102
f 173/187/103 174/175/103 177/174/103 176/188/103
f 175/189/104 176/188/104 172/186/104 169/185/104
f 176/188/105 177/174/105 162/176/105 172/186/105
f 178/43/106 182/190/106 185/191/106 184/192/106
f 182/190/107 183/193/107 186/194/107 185/191/107
f 184/192/108 185/191/108 202/195/108 199/196/108
f 185/191/109 186/194/109 187/197/109 202/195/109
f 179/36/110 188/198/110 191/199/110 190/200/110
f 188/198/111 189/201/111 192/202/111 191/199/111
f 190/200/112 191/199/112 186/194/112 183/193/112
f 191/199/113 192/202/113 187/197/113 186/194/113
f 180/46/114 193/203/114 196/204/114 195/205/114
f 193/203/115 194/206/115 197/207/115 196/204/115
f 195/205/116 196/204/116 192/202/116 189/201/116
f 196/204/117 197/207/117 187/197/117 192/202/117
f 181/19/118 198/208/118 201/209/118 200/210/118
f 198/208/119 199/196/119 202/195/119 201/209/119
f 200/210/120 201/209/120 197/207/120 194/206/120
f 201/209/121 202/195/121 187/197/121 197/207/121
f 203/35/122 207/211/122 210/212/122 209/213/122
f 207/211/123 208/214/123 211/215/123 210/212/123
f 209/213/124 210/212/124 227/216/124 224/217/124
f 210/212/125 211/215/125 212/218/125 227/216/125
f 204/32/126 213/219/126 216/220/126 215/221/126
f 213/219/127 214/222/127 217/223/127 216/220/127
f 215/221/128 216/220/128 211/215/128 208/214/128
f 216/220/129 217/223/129 212/218/129 211/215/129
f 205/38/130 218/224/130 221/225/130 220/226/130
f 218/224/131 219/227/131 222/228/131 221/225/131
f 220/226/132 221/225/132 217/223/132 214/222/132
f 221/225/133 222/228/133 212/218/133 217/223/133
f 206/47/134 223/229/134 226/230/134 225/231/134
f 223/229/135 224/217/135 227/216/135 226/230/135
f 225/231/136 226/230/136 222/228/136 219/227/136
f 226/230/137 227/216/137 212/218/137 222/228/137
f 228/31/138 232/232/138 235/233/138 234/234/138
f 232/232/139 233/235/139 236/236/139 235/233/139
f 234/234/140 235/233/140 252/237/140 249/238/140
f 235/233/141 236/236/141 237/239/141 252/237/141
f 229/28/142 238/240/142 241/241/142 240/242/142
f 238/240/143 239/243/143 242/244/143 241/241/143
f 240/242/144 241/241/144 236/236/144 233/235/144
f 241/241/145 242/244/145 237/239/145 236/236/145
f 230/2/146 243/245/146 246/246/146 245/247/146
f 243/245/147 244/248/147 247/249/147 246/246/147
f 245/247/148 246/246/148 242/244/148 239/243/148
f 246/246/149 247/249/149 237/239/149 242/244/149
f 231/39/150 248/250/150 251/251/150 250/252/150
f 248/250/151 249/238/151 252/237/151 251/251/151
f 250/252/152 251/251/152 247/249/152 244/248/152
f 251/251/153 252/237/153 237/239/153 247/249/153
f 253/16/154 257/253/154 260/254/154 259/255/154
f 257/253/155 258/256/155 261/257/155 260/254/155
f 259/255/156 260/254/156 277/258/156 274/259/156
f 260/254/157 261/257/157 262/260/157 277/258/157
f 254/41/158 263/261/158 266/262/158 265/263/158
f 263/261/159 264/264/159 267/265/159 266/262/159
f 265/263/160 266/262/160 261/257/160 258/256/160
f 266/262/161 267/265/161 262/260/161 261/257/161
f 255/26/162 268/266/162 271/267/162 270/268/162
f 268/266/163 269/269/163 272/270/163 271/267/163
f 270/268/164 271/267/164 267/265/164 264/264/164
f 271/267/165 272/270/165 262/260/165 267/265/165
f 256/23/166 273/271/166 276/272/166 275/273/166
f 273/271/167 274/259/167 277/258/167 276/272/167
f 275/273/168 276/272/168 272/270/168 269/269/168
f 276/272/169 277/258/169 262/260/169 272/270/169
f 278/15/170 282/274/170 285/275/170 284/276/170
f 282/274/171 283/277/171 286/278/171 285/275/171
f 284/276/172 285/275/172 302/279/172 299/280/172
f 285/275/173 286/278/173 287/281/173 302/279/173
f 279/8/174 288/282/174 291/283/174 290/284/174
f 288/282/175 289/285/175 292/286/175 291/283/175
f 290/284/176 291/283/176 286/278/176 283/277/176
f 291/283/177 292/286/177 287/281/177 286/278/177
f 280/33/178 293/287/178 296/288/178 295/289/178
f 293/287/179 294/290/179 297/291/179 296/288/179
f 295/289/180 296/288/180 292/286/180 289/285/180
f 296/288/181 297/291/181 287/281/181 292/286/181
f 281/42/182 298/292/182 301/293/182 300/294/182
f 298/292/183 299/280/183 302/279/183 301/293/183
f 300/294/184 301/293/184 297/291/184 294/290/184
f 301/293/185 302/279/185 287/281/185 297/291/185
f 303/7/186 307/295/186 310/296/186 309/297/186
f 307/295/187 308/298/187 311/299/187 310/296/187
f 309/297/188 310/296/188 327/300/188 324/301/188
f 310/296/189 311/299/189 312/302/189 327/300/189
f 304/12/190 313/303/190 316/304/190 315/305/190
f 313/303/191 314/306/191 317/307/191 316/304/191
f 315/305/192 316/304/192 311/299/192 308/298/192
f 316/304/193 317/307/193 312/302/193 311/299/193
f 305/29/194 318/308/194 321/309/194 320/310/194
f 318/308/195 319/311/195 322/312/195 321/309/195
f 320/310/196 321/309/196 317/307/196 314/306/196
f 321/309/197 322/312/197 312/302/197 317/307/197
f 306/34/198 323/313/198 326/314/198 325/315/198
f 323/313/199 324/301/199 327/300/199 326/314/199
f 325/315/200 326/314/200 322/312/200 319/311/200
f 326/314/201 327/300/201 312/302/201 322/312/201
f 328/11/202 332/316/202 335/317/202 334/318/202
f 332/316/203 333/319/203 336/320/203 335/317/203
f 334/318/204 335/317/204 352/321/204 349/322/204
f 335/317/205 336/320/205 337/323/205 352/321/205
f 329/24/206 338/324/206 341/325/206 340/326/206
f 338/324/207 339/327/207 342/328/207 341/325/207
f 340/326/208 341/325/208 336/320/208 333/319/208
f 341/325/209 342/328/209 337/323/209 336/320/209
f 330/25/210 343/329/210 346/330/210 345/331/210
f 343/329/211 344/332/211 347/333/211 346/330/211
f 345/331/212 346/330/212 342/328/212 339/327/212
f 346/330/213 347/333/213 337/323/213 342/328/213
f 331/30/214 348/334/214 351/335/214 350/336/214
f 348/334/215 349/322/215 352/321/215 351/335/215
f 350/336/216 351/335/216 347/333/216 344/332/216
f 351/335/217 352/321/217 337/323/217 347/333/217
f 39/79/218 1/49/218 6/52/218 42/80/218
f 42/80/219 6/52/219 16/56/219 43/83/219
f 43/83/220 16/56/220 15/63/220 50/90/220
f 50/90/221 15/63/221 3/17/221 40/20/221
f 2/4/222 153/3/222 159/171/222 10/58/222
f 10/58/223 159/171/223 174/175/223 11/61/223
f 11/61/224 174/175/224 173/187/224 17/65/224
f 17/65/225 173/187/225 156/18/225 3/17/225
f 155/44/226 178/43/226 184/192/226 168/182/226
f 168/182/227 184/192/227 199/196/227 169/185/227
f 169/185/228 199/196/228 198/208/228 175/189/228
f 175/189/229 198/208/229 181/19/229 156/18/229
f 180/46/230 41/45/230 55/95/230 193/203/230
f 193/203/231 55/95/231 49/91/231 194/206/231
f 194/206/232 49/91/232 48/88/232 200/210/232
f 200/210/233 48/88/233 40/20/233 181/19/233
f 115/139/234 39/79/234 44/82/234 118/140/234
f 118/140/235 44/82/235 54/86/235 119/143/235
f 119/143/236 54/86/236 53/93/236 126/150/236
f 126/150/237 53/93/237 41/45/237 116/48/237
f 179/36/238 203/35/238 209/213/238 188/198/238
f 188/198/239 209/213/239 224/217/239 189/201/239
f 189/201/240 224/217/240 223/229/240 195/205/240
f 195/205/241 223/229/241 206/47/241 180/46/241
f 205/38/242 117/37/242 131/155/242 218/224/242
f 218/224/243 131/155/243 125/151/243 219/227/243
f 219/227/244 125/151/244 124/148/244 225/231/244
f 225/231/245 124/148/245 116/48/245 206/47/245
f 77/109/246 115/139/246 120/142/246 80/110/246
f 80/110/247 120/142/247 130/146/247 81/113/247
f 81/113/248 130/146/248 129/153/248 88/120/248
f 88/120/249 129/153/249 117/37/249 78/40/249
f 204/32/250 228/31/250 234/234/250 213/219/250
f 213/219/251 234/234/251 249/238/251 214/222/251
f 214/222/252 249/238/252 248/250/252 220/226/252
f 220/226/253 248/250/253 231/39/253 205/38/253
f 230/2/254 79/1/254 93/125/254 243/245/254
f 243/245/255 93/125/255 87/121/255 244/248/255
f 244/248/256 87/121/256 86/118/256 250/252/256
f 250/252/257 86/118/257 78/40/257 231/39/257
f 1/49/258 77/109/258 82/112/258 4/50/258
f 4/50/259 82/112/259 92/116/259 5/53/259
f 5/53/260 92/116/260 91/123/260 12/60/260
f 12/60/261 91/123/261 79/1/261 2/4/261
f 229/28/262 154/27/262 165/179/262 238/240/262
f 238/240/263 165/179/263 158/172/263 239/243/263
f 239/243/264 158/172/264 157/169/264 245/247/264
f 245/247/265 157/169/265 153/3/265 230/2/265
f 253/16/266 278/15/266 284/276/266 257/253/266
f 257/253/267 284/276/267 299/280/267 258/256/267
f 258/256/268 299/280/268 298/292/268 265/263/268
f 265/263/269 298/292/269 281/42/269 254/41/269
f 279/8/270 303/7/270 309/297/270 288/282/270
f 288/282/271 309/297/271 324/301/271 289/285/271
f 289/285/272 324/301/272 323/313/272 295/289/272
f 295/289/273 323/313/273 306/34/273 280/33/273
f 304/12/274 328/11/274 334/318/274 313/303/274
f 313/303/275 334/318/275 349/322/275 314/306/275
f 314/306/276 349/322/276 348/334/276 320/310/276
f 320/310/277 348/334/277 331/30/277 305/29/277
f 329/24/278 256/23/278 275/273/278 338/324/278
f 338/324/279 275/273/279 269/269/279 339/327/279
f 339/327/280 269/269/280 268/266/280 345/331/280
f 345/331/281 268/266/281 255/26/281 330/25/281
f 154/27/7 255/26/7 270/268/7 163/177/7
f 163/177/7 270/268/7 264/264/7 164/180/7
f 164/180/7 264/264/7 263/261/7 170/184/7
f 170/184/7 263/261/7 254/41/7 155/44/7
f 280/33/7 179/36/7 190/200/7 293/287/7
f 293/287/7 190/200/7 183/193/7 294/290/7
f 294/290/7 183/193/7 182/190/7 300/294/7
f 300/294/7 182/190/7 178/43/7 281/42/7
f 305/29/7 204/32/7 215/221/7 318/308/7
f 318/308/7 215/221/7 208/214/7 319/311/7
f 319/311/7 208/214/7 207/211/7 325/315/7
f 325/315/7 207/211/7 203/35/7 306/34/7
f 330/25/7 229/28/7 240/242/7 343/329/7
f 343/329/7 240/242/7 233/235/7 344/332/7
f 344/332/7 233/235/7 232/232/7 350/336/7
f 350/336/7 232/232/7 228/31/7 331/30/7
f 35/72/267 62/99/267 61/96/267 25/68/267
f 25/68/266 61/96/266 58/14/266 20/13/266
f 68/108/271 138/159/271 137/156/271 74/106/271
f 74/106/270 137/156/270 134/6/270 60/5/270
f 144/168/275 100/129/275 99/126/275 150/166/275
f 150/166/274 99/126/274 96/10/274 136/9/274
f 106/138/279 30/77/279 29/74/279 112/136/279
f 112/136/278 29/74/278 21/22/278 98/21/278
f 256/23/282 21/22/282 31/76/282 273/271/282
f 273/271/283 31/76/283 24/69/283 274/259/283
f 274/259/284 24/69/284 23/66/284 259/255/284
f 259/255/285 23/66/285 20/13/285 253/16/285
f 60/5/286 279/8/286 290/284/286 72/104/286
f 72/104/287 290/284/287 283/277/287 73/102/287
f 73/102/288 283/277/288 282/274/288 63/98/288
f 63/98/289 282/274/289 278/15/289 58/14/289
f 136/9/290 304/12/290 315/305/290 148/164/290
f 148/164/291 315/305/291 308/298/291 149/162/291
f 149/162/292 308/298/292 307/295/292 139/158/292
f 139/158/293 307/295/293 303/7/293 134/6/293
f 98/21/294 329/24/294 340/326/294 110/134/294
f 110/134/295 340/326/295 333/319/295 111/132/295
f 111/132/296 333/319/296 332/316/296 101/128/296
f 101/128/297 332/316/297 328/11/297 96/10/297
f 39/79/7 115/139/7 77/109/7 1/49/7
usemtl Radar
f 135/337/298 59/338/298 22/339/298 97/340/298
f 22/339/299 34/341/299 37/342/299 36/343/299
f 34/341/300 35/344/300 38/345/300 37/342/300
f 36/343/301 37/342/301 33/346/301 30/347/301
f 37/342/302 38/345/302 28/348/302 33/346/302
f 59/338/303 67/349/303 70/350/303 69/351/303
f 67/349/304 68/352/304 71/353/304 70/350/304
f 69/351/305 70/350/305 65/354/305 62/355/305
f 70/350/306 71/353/306 66/356/306 65/354/306
f 97/340/307 105/357/307 108/358/307 107/359/307
f 105/357/308 106/360/308 109/361/308 108/358/308
f 107/359/309 108/358/309 103/362/309 100/363/309
f 108/358/310 109/361/310 104/364/310 103/362/310
f 135/337/311 143/365/311 146/366/311 145/367/311
f 143/365/312 144/368/312 147/369/312 146/366/312
f 145/367/313 146/366/313 141/370/313 138/371/313
f 146/366/314 147/369/314 142/372/314 141/370/314
f 22/339/269 59/338/269 69/351/269 34/341/269
f 34/341/268 69/351/268 62/355/268 35/344/268
f 59/338/273 135/337/273 145/367/273 67/349/273
f 67/349/272 145/367/272 138/371/272 68/352/272
f 135/337/277 97/340/277 107/359/277 143/365/277
f 143/365/276 107/359/276 100/363/276 144/368/276
f 97/340/281 22/339/281 36/343/281 105/357/281
f 105/357/280 36/343/280 30/347/280 106/360/280
