# Blender MTL File: 'status.blend'
# Material Count: 2

newmtl LED
Ns 96.078431
Ka 1.000000 1.000000 1.000000
Kd 0.000000 0.578444 0.000000
Ks 0.500000 0.500000 0.500000
Ke 0.000000 0.000000 0.000000
Ni 1.000000
d 1.000000
illum 2

newmtl Sockel
Ns 27.450980
Ka 1.000000 1.000000 1.000000
Kd 0.512996 0.512996 0.512996
Ks 0.900000 0.900000 0.900000
Ke 0.000000 0.000000 0.000000
Ni 1.000000
d 1.000000
illum 2
