# Blender MTL File: 'mazes.blend'
# Material Count: 1

newmtl Triangle
Ns 96.078431
Ka 1.000000 1.000000 1.000000
Kd 0.800000 0.000000 0.000000
Ks 0.500000 0.100000 0.100000
Ke 0.700000 0.000000 0.000000
Ni 1.000000
d 1.000000
illum 2
